CONCEPT	STRING
11a0	pessoa
11a1	olhar
11a11	braço
11a14	roupa
11a15	manga
11a16	ombro
11a19	bolso
11a2	idade
11a20	estampa
11a21	pele
11a3	cabelo
11h1	menina
11h2	menino
11h3	crianças
11o118	jeans
11o120	tênis
11o121	moletom
11o16	vestido
11o17	babado
11o19	sandália
11o21	blusa
11o500	entulho
11o501	estrada
11o502	cerca
11o503	arame
11o504	vegetação
11o505	cápsulas
11o506	guerra
11o507	frio
11o508	sol
11o509	país
11o510	renda
11o511	tristeza
11o512	vida
11o513	cor
11o514	fundo
11o515	meio
11o516	metal
11o517	beira
11o518	frente
11o519	local
11o520	foto
11o521	construção
11o522	canto
11o523	concreto
11o524	borda
11o525	câmera
11o526	calibre
11o527	aparência
11o528	interior
11o529	centro
11o530	origem
22h1	criança
22o10	mão
22o16	rosto
22o17	pele
22o3	cabelos
22o500	balde
22o501	terra
22o502	tijolos
22o503	barraco
22o504	plástico
22o505	telhas
22o506	madeira
22o507	pedras
22o508	lixo
22o509	árvores
22o510	panela
22o511	ferro
22o512	chão
22o513	imagem
22o514	pessoas
22o515	paredes
22o516	roupa
22o517	materiais
22o518	pobreza
22o519	pais
22o520	porta
22o521	trabalho
22o522	anos
22o523	pedaços
22o524	frente
22o525	espécie
22o526	lado
22o527	monte
22o528	meio
22o529	altura
22o530	cor
22o531	dia
22o532	local
33a11	braço
33h1	bebê
33h2	mãe
33o10	mãos
33o12	cabeça
33o13	rosto
33o14	pele
33o16	batom
33o3	cabelo
33o507	chão
33o4	lábios
33o5	olhos
33o500	manta
33o502	colo
33o505	doença
33o508	cama
33o509	saia
33o510	parede
33o511	casa
33o7	nariz
44a0	pessoa
44a1	expressão
44a10	mãos
44a11	braços
44a14	roupa
44a2	idades
44a25	cabeça
44a26	cara
44a29	pele
44a30	pulseira
44a31	costas
44a4	boca
44a5	olhos
44h1	mulher
44h2	pessoas
44o500	campo
44o501	desespero
44o502	lado
44o504	condições
44o505	ajuda
44o506	frente
44o507	lugar
44o508	árvore
44o509	câmera
44o510	barracas
44o511	comida
44o512	chapéu
44o513	água
44o514	atenção
44o515	fundo
44o516	imagem
44o517	país
44o518	direito
44o519	origem
44o520	súplica
44o521	vida
44o522	comunidade
44o523	coisa
44o524	direção
44o525	parte
44o526	centro
44o527	aparência
44o528	espaço
44o529	lenço
44o530	ponto
44o531	região
44o532	destaque
44o533	dia
44o534	metal
44o535	quantidade
44o536	situação
55a1	olhar
55a10	mãos
55a12	pernas
55a14	roupa
55a15	casaco
55a16	camiseta
55a17	vestido
55a19	calça
55a2	idade
55a21	tênis
55a22	blusa
55a25	cabeça
55a26	rosto
55a29	pele
55a3	cabelo
55a30	boné
55a31	lenço
55a5	olhos
55h1	senhora
55h2	garoto
55h3	garoto
55h4	mulher
55h5	bebê
55h6	crianças
55h7	pessoa
55o500	imagem
55o501	local
55o502	frio
55o504	colo
55o505	parede
55o506	chão
55o507	banco
55o508	banana
55o509	coisa
55o510	noite
55o511	sacola
55o512	cimento
55o513	espera
55o514	espécie
55o515	lanterna
55o516	sala
55o517	festa
55o518	lado
55o519	fundo
55o520	câmera
55o521	destaque
55o522	inverno
55o523	atendimento
55o524	canto
55o525	atenção
55o526	detalhes
55o527	metade
55o528	momento
55o529	temperatura
66h1	criança
66o1	olhar
66o10	mãos
66o12	pernas
66o13	pés
66o14	blusa
66o18	rosto
66o19	pele
66o2	idade
66o20	manchas
66o21	zíper
66o3	cabelos
66o4	boca
66o5	olhos
66o500	cama
66o501	grades
66o502	cobertor
66o503	lençol
66o504	parede
66o506	dor
66o508	condição
66o509	doença
66o512	local
66o513	hospital
66o514	imagem
66o515	cor
66o516	aparência
66o517	fundo
66o518	sinais
66o519	lado
66o9	corpo
77a1	expressão
77a12	pernas
77a14	roupa
77a15	casaco
77a19	calça
77a2	idade
77a20	sandália
77a21	tênis
77a25	cabeça
77a26	cara
77a3	cabelo
77h1	mulher
77h2	criança
77h3	criança
77h4	pessoas
77h5	crianças
77o500	brinquedos
77o502	carrinhos
77o503	chão
77o506	imagem
77o507	redor
77o508	choro
77o510	colo
77o511	pelúcia
77o512	casa
77o513	aparência
77o515	fundo
77o516	plástico
77o517	sol
77o518	degrau
77o519	quintal
77o520	esquerda
77o521	concreto
77o523	direita
77o524	calçada
77o525	escada
77o526	momento
77o527	rua
77o528	dia
77o529	objetos
77o530	parque
88h1	homem
88h2	pessoas
88o100	olhar
88o101	anos
88o102	cabelo
88o103	boca
88o104	olhos
88o106	nariz
88o107	pescoço
88o111	ombros
88o112	cabeça
88o113	rosto
88o114	pele
88o115	mãos
88o116	altura
88o117	chapéu
88o118	pulso
88o119	orelha
88o121	pulseira
88o122	camisa
88o500	cerca
88o501	arame farpado
88o502	madeira
88o504	imagem
88o505	lugar
88o509	dia
88o510	câmera
88o511	trabalho
88o512	ponto
88o513	lado
88o514	parte
88o515	fundo
88o516	sol
88o517	pedaço
88o518	foco
88o519	frente
88o520	coisa
88o521	forma
99h1	senhor
99h2	pessoas
99o100	olhar
99o101	idade
99o102	cabelo
99o104	olhos
99o108	corpo
99o109	mão
99o112	cabeça
99o113	rosto
99o114	pele
99o115	corcunda
99o116	touca
99o117	pernas
99o118	roupa
99o119	aliança
99o120	unhas
99o121	posição
99o122	pé
99o123	bigode
99o124	lã
99o125	sorriso
99o126	dedo
99o127	bermuda
99o128	camisa
99o129	xadrez
99o130	rugas
99o131	manga
99o500	chão
99o501	faixa
99o503	sofrimento
99o507	local
99o508	azulejos
99o509	imagem
99o510	fundo
99o511	câmera
99o512	aparência
99o513	frente
99o514	cor
99o515	rua
99o516	vida
99o517	deficientes
99o518	problema
99o519	relevo
99o520	situação
99o521	vinho
99o522	abrigo
99o523	centro
99o524	condições
99o525	direção
99o526	frio
1010a11	mão
1010a15	roupa
1010a16	casaco
1010a17	camisa
1010a18	vestido
1010a20	calça
1010a22	sapato
1010a23	blusa
1010a24	manga
1010a26	cabeça
1010a27	rosto
1010a3	anos
1010a30	pele
1010a31	sorriso
1010a32	lenço
1010a33	saia
1010a34	gorro
1010a35	roupão
1010a36	tecido
1010a4	cabelo
1010h1	senhora
1010h2	menina
1010h3	menina
1010h4	mulher
1010h5	mulheres
1010h6	crianças
1010h7	pessoas
1010o501	fogão
1010o502	panela
1010o503	comida
1010o504	fumaça
1010o505	grama
1010o506	terra
1010o507	pedra
1010o508	óculos
1010o509	foto
1010o510	local
1010o511	frio
1010o512	condições
1010o513	lado
1010o514	chão
1010o515	galho
1010o516	lenha
1010o517	ferro
1010o518	pedaço
1010o519	volta
1010o520	árvore
1010o521	campo
1010o522	barraca
1010o523	frente
1010o524	fundo
1010o525	coberta
1010o526	espécie
1010o527	meio
1010o528	câmera
1010o529	acampamento
1010o530	esquerda
1010o531	água
1010o532	ambiente
1010o533	direita
1010o534	fogo
1010o535	mesa
1010o536	bengala
1010o537	sol
1010o538	apoio
1010o539	canto
1010o540	lona
1010o541	palha
1010o542	tipo
1010o544	coisa
1010o545	cor
1010o546	felicidade
1010o547	vida
