PICTURE	CONCEPT	WORDS
1	1a0	2
1	1a1	2
1	1h1	3
1	1h2	2
1	1h3	3
1	1o120	2
1	1o17	2
1	1o19	2
1	1o500	11
1	1o501	8
1	1o502	6
1	1o503	4
1	1o504	7
1	1o505	7
1	1o509	2
1	1o516	2
1	1o519	6
1	1o520	5
2	2h1	5
2	2o500	6
2	2o501	3
2	2o502	4
2	2o503	10
2	2o504	4
2	2o505	4
2	2o506	3
2	2o508	2
2	2o509	4
2	2o511	3
2	2o512	2
2	2o513	4
2	2o516	2
2	2o532	5
3	3h1	3
3	3h2	3
3	3o4	2
3	3o500	8
4	4a0	2
4	4a1	4
4	4a10	2
4	4a11	2
4	4a14	2
4	4a26	2
4	4h1	4
4	4h2	12
4	4o501	4
4	4o504	3
4	4o506	2
4	4o507	5
4	4o508	2
4	4o511	2
4	4o516	3
5	5a14	2
5	5a15	4
5	5a19	2
5	5a2	2
5	5a21	2
5	5a22	2
5	5a26	2
5	5a31	2
5	5h1	4
5	5h2	5
5	5h3	4
5	5h4	4
5	5h5	2
5	5h6	10
5	5h7	5
5	5o500	4
5	5o501	3
5	5o507	2
5	5o509	2
5	5o512	2
5	5o516	2
6	6h1	3
6	6o1	3
6	6o12	2
6	6o13	2
6	6o14	8
6	6o20	9
6	6o500	5
6	6o502	2
6	6o503	3
6	6o506	2
6	6o508	3
6	6o514	3
7	7a1	3
7	7a15	2
7	7a19	2
7	7a26	3
7	7h1	4
7	7h2	2
7	7h3	2
7	7h4	2
7	7h5	3
7	7o500	2
7	7o502	2
7	7o503	3
7	7o506	3
7	7o507	4
7	7o508	4
7	7o511	7
7	7o521	2
8	8h1	6
8	8o100	2
8	8o101	2
8	8o102	2
8	8o113	2
8	8o115	2
8	8o122	2
8	8o500	2
8	8o501	4
8	8o502	4
8	8o504	3
8	8o505	3
9	9h1	7
9	9o100	4
9	9o109	2
9	9o113	3
9	9o115	3
9	9o116	2
9	9o117	2
9	9o118	2
9	9o119	2
9	9o121	2
9	9o127	2
9	9o128	2
9	9o507	5
9	9o508	3
9	9o509	3
10	10a15	2
10	10a16	3
10	10a20	2
10	10a22	3
10	10a3	2
10	10a32	3
10	10a34	2
10	10a4	2
10	10h1	6
10	10h2	4
10	10h3	5
10	10h4	5
10	10h6	3
10	10h7	2
10	10o503	2
10	10o504	2
10	10o505	4
10	10o506	2
10	10o507	2
10	10o508	2
10	10o509	4
10	10o510	3
10	10o515	3
10	10o516	2
10	10o517	2
10	10o522	2
10	10o525	2
10	10o536	2
