STRING	INSTANCES
terra	412
balde	167
barraco	78
paus	7
tijolos	55
telhas	80
sacos	14
imagem	346
criança	649
construção	19
ambiente	71
casa	53
lonas	17
arame	206
plástico	128
menino	400
recipiente	10
metal	34
roupa	37
lona	76
chão	231
árvores	50
área	36
barraca	29
abrigo	8
vegetação	57
lugar	105
moradia	8
cabana	11
madeira	206
garoto	140
cenário	20
camisa	184
foto	279
telhado	6
terreno	25
ferro	61
bambu	10
muro	16
barro	10
mata	13
barracão	7
local	126
vasilha	7
lixo	31
restos	24
pote	7
cena	116
bebê	210
areia	15
coberta	61
boca	21
lábios	100
pano	39
tecido	13
cobertor	100
manta	66
pessoa	161
mãe	113
lençol	82
mulher	404
pessoas	317
braço	7
multidão	29
braços	53
mãos	110
grupo	48
negros	24
maioria	11
condições	14
olhar	97
expressão	81
desespero	18
tristeza	27
população	9
alimentos	6
frente	27
moça	49
mulheres	51
homens	32
crianças	430
sofrimento	11
adultos	9
idosos	24
expressões	9
cara	31
mão	42
comida	31
preocupação	6
rapaz	26
banco	23
senhora	262
casaco	114
blusa	89
lenço	65
jovem	21
calça	104
coisa	9
fila	24
jovens	8
concreto	16
idosa	104
jaqueta	54
garotinho	7
jeans	28
tênis	102
objeto	7
família	46
idades	10
idade	44
agasalho	8
sobretudo	10
cachecol	18
filho	7
meninos	7
cimento	12
menina	290
sala	12
cadeira	7
garotos	7
cama	73
pé	14
marcas	26
pernas	155
condição	7
manchas	43
perna	31
berço	74
pés	29
maca	25
machucados	13
colchão	11
inchaço	7
leito	20
feridas	21
lençóis	6
dor	6
cicatrizes	6
falta	6
ferimentos	7
semblante	33
moletom	10
frio	21
brinquedos	165
pelúcia	96
carrinho	19
meninas	88
redor	61
carrinhos	21
brinquedo	9
filhas	59
adulta	13
choro	22
bicho	10
rosto	47
homem	317
cerca	228
boné	37
camiseta	38
cabelos	25
anos	59
tábua	25
cabelo	39
arames	32
ripa	7
adulto	9
senhor	113
preso	6
testa	6
cercado	9
corcunda	23
idoso	46
coluna	21
gorro	57
bermuda	61
aliança	31
cerâmica	7
azulejos	9
pisos	7
touca	62
shorts	22
traços	9
volta	12
costas	14
anel	8
posição	8
postura	8
mendigo	6
vestes	6
grama	27
pedras	32
lenha	44
pedra	63
graveto	14
galho	47
fumaça	53
bengala	7
óculos	58
sapatos	11
calças	9
pau	9
garota	57
vapor	19
netas	9
sapato	22
avó	11
netos	6
sapatilha	7
capim	9
cajado	6
tenda	8
rolos	49
alambrado	7
coisas	7
paisagem	7
estrada	126
materiais	10
grades	7
rua	17
objetos	32
pedaços	19
zona	6
chinelo	17
entulho	24
renda	5
caminho	7
grade	7
figura	7
cápsulas	7
mato	18
casal	7
irmãos	18
balas	8
babado	10
sandália	12
canos	7
