<CAPTION ID=1040>
a [ela] PERS F 3S ACC @ACC>
espera [esperar] <fmc> <vt> V PR 3S IND VFIN @FMV

</CAPTION>
<CAPTION ID=1052>
pessoas [pessoa] <H> N F P @SUBJ>
esperando [esperar] <vt> V GER @IMV

</CAPTION>
<CAPTION ID=1054>
frio [frio] <am> N M S @SUBJ>
e [e] KC @CO
espera [esperar] <fmc> <vi> V PR 3S IND VFIN @FMV

</CAPTION>
<CAPTION ID=1055>
pessoas [pessoa] <H> N F P @NPHR
reunidas [reunir] <vt> V PCP F P @N<
.

</CAPTION>
<CAPTION ID=1058>
pessoas [pessoa] <H> N F P @SUBJ>
se [se] PERS M/F 3S/P ACC @ACC>-PASS
protegendo [proteger] <vt> V GER @IMV @#ICL-ADVL

</CAPTION>
<CAPTION ID=1059>
refúgio [refúgio] <Lh> N M S @NPHR

</CAPTION>
<CAPTION ID=1143>
idosa [idoso] ADJ F S @>N
terrorista [terrorista] <Hideo> N F S @NPHR

</CAPTION>
<CAPTION ID=1144>
fila [fila] <coll-cc> <HH> <act> N F S @NPHR
de [de] PRP @N<
espera [espera] <activity> <per> N F S @P<

</CAPTION>
<CAPTION ID=1165>
pessoas [pessoa] <H> N F P @SUBJ>
esperando [esperar] <vi> V GER @IMV

</CAPTION>
<CAPTION ID=144>
pessoas [pessoa] <H> N F P @SUBJ>
aguardando [aguardar] <vt> V GER @IMV
em [em] PRP @<ADVL
fila [fila] <coll-cc> <HH> <act> N F S @P<

</CAPTION>
<CAPTION ID=19>
hospital [hospital] <inst> N M S @NPHR
"

</CAPTION>
<CAPTION ID=20>
reunião [reunião] <occ> N F S @NPHR
de [de] PRP @N<
família [família] <HH> N F S @P<

</CAPTION>
<CAPTION ID=2032>
confraternização [confraternização] <act> N F S @NPHR

</CAPTION>
<CAPTION ID=2033>
frio [frio] <am> N M S @NPHR

</CAPTION>
<CAPTION ID=2035>
todos [todo] <quant> DET M P @NPHR
a [a] <sam-> PRP @N<
a [o] <-sam> <artd> DET F S @>N
espera [espera] <activity> <per> N F S @P<

</CAPTION>
<CAPTION ID=2037>
aguardando [aguardar] <vt> V GER @IMV @#ICL-ADVL
ônibus [ônibus] <V> N M S/P @<ACC

</CAPTION>
<CAPTION ID=2038>
família [família] <HH> N F S @NPHR
reunida [reunir] <vt> V PCP F S @N<

</CAPTION>
<CAPTION ID=2039>
velhos [velho] ADJ M P @SUBJ>
e [e] <co-subj> KC @CO
crianças [criança] <H> N F P @SUBJ>
observam [observar] <fmc> V PR 3P IND VFIN @FMV
.

</CAPTION>
<CAPTION ID=2043>
fugindo [fugir] <vt> V GER @IMV @#ICL-ADVL
de [de] <sam-> PRP @<ADVL
o [o] <-sam> <artd> DET M S @>N
horror [horror] <am> N M S @P<

</CAPTION>
<CAPTION ID=21>
fila [fila] <coll-cc> <HH> <act> N F S @NPHR
de [de] PRP @N<
espera [espera] <prop> <activity> <per> N F S @P<

</CAPTION>
<CAPTION ID=22>
pessoas [pessoa] <H> N F P @NPHR
sentadas [sentado] ADJ F P @N<
.

</CAPTION>
<CAPTION ID=2226>
grupo [grupo] <HH> N M S @NPHR
de [de] PRP @N<
pessoas [pessoa] <H> N F P @P<
reunidas [reunir] <vt> V PCP F P @N<
.

</CAPTION>
<CAPTION ID=2327>
mulheres [mulher] <Hbio> <Hfam> <Hattr> N F P @SUBJ>
e [e] <co-subj> KC @CO
crianças [criança] <H> N F P @SUBJ>
esperando [esperar] <vi> V GER @IMV @#ICL-ADVL
.

</CAPTION>
<CAPTION ID=2330>
pessoas [pessoa] <H> N F P @NPHR
com [com] PRP @N<
frio [frio] <am> N M S @P<

</CAPTION>
<CAPTION ID=2331>
a [o] <artd> DET F S @>N
vovó [vovó] <Hfam> N F S @SUBJ>
está [estar] <fmc> <vK> V PR 3S IND VFIN @FMV
de [de] PRP @<SC
babá [babá] <food-h> N M S @P<

</CAPTION>
<CAPTION ID=2332>
esperando [esperar] <vt> V GER @IMV @#ICL-ADVL
sentado [sentado] ADJ M S @<ACC

</CAPTION>
<CAPTION ID=2335>
aniversário [aniversário] <occ> N M S @NPHR
de [de] PRP @N<
família [família] <HH> N F S @P<

</CAPTION>
<CAPTION ID=2338>
encontro [encontrar] <fmc> <vt> V PR 1S IND VFIN @FMV
em [em] PRP @<ADVL
família [família] <HH> N F S @P<

</CAPTION>
<CAPTION ID=2340>
pessoas [pessoa] <H> N F P @NPHR
em [em] PRP @N<
ambiente [ambiente] <Labs> <sit> N M S @P<
pequeno [pequeno] ADJ M S @N<

</CAPTION>
<CAPTION ID=2444>
encontro [encontro] <occ> <event> N M S @NPHR
de [de] PRP @N<
família [família] <HH> N F S @P<

</CAPTION>
<CAPTION ID=25>
pessoas [pessoa] <H> N F P @NPHR
em [em] <sam-> PRP @N<
o [o] <-sam> <artd> DET M S @>N
inverno [inverno] <per> N M S @P<

</CAPTION>
<CAPTION ID=2528>
pessoas [pessoa] <H> N F P @SUBJ>
olhando [olhar] <vt> V GER @IMV

</CAPTION>
<CAPTION ID=270>
mulher [mulher] <Hbio> <Hfam> <Hattr> N F S @SUBJ>
olhando [olhar] <vt> V GER @IMV
a [o] <artd> DET F S @>N
câmera [câmera] <tool> N F S @<ACC

</CAPTION>
<CAPTION ID=28>
festa [festa] <occ> N F S @NPHR
infantil [infantil] ADJ F S @N<

</CAPTION>
<CAPTION ID=282>
festa [festa] <occ> N F S @NPHR
em [em] PRP @N<
família [família] <HH> N F S @P<

</CAPTION>
<CAPTION ID=2838>
diversidade [diversidade] <am> N F S @NPHR

</CAPTION>
<CAPTION ID=2840>
pessoas [pessoa] <H> N F P @NPHR
em [em] PRP @N<
um [um] <arti> DET M S @>N
cômodo [cômodo] <am> N M S @P<

</CAPTION>
<CAPTION ID=2841>
pessoas [pessoa] <H> N F P @SUBJ>
aguardando [aguardar] <vt> V GER @IMV
em dia [em=dia] ADV @<ADVL
frio [frio] <am> N M S @<ACC

</CAPTION>
<CAPTION ID=3022>
pessoas [pessoa] <H> N F P @NPHR
sentadas [sentado] ADJ F P @N<

</CAPTION>
<CAPTION ID=3023>
a [a] <sam-> PRP @ADVL
a [o] <-sam> <artd> DET F S @>N
espera [espera] <activity> <per> N F S @P<
de [de] <sam-> PRP @N<
o [o] <-sam> <artd> DET M S @>N
quê [quê] <interr> SPEC M S @SC>
?

</CAPTION>
<CAPTION ID=31>
reunião [reunião] <occ> N F S @NPHR

</CAPTION>
<CAPTION ID=32>
sala de espera [sala=de=espera] <Lh> N F S @NPHR

</CAPTION>
<CAPTION ID=3228>
pessoas [pessoa] <H> N F P @SUBJ>
esperando [esperar] V GER @IMV
por [por] PRP @<PIV
algo [algo] <quant> SPEC M S @P<

</CAPTION>
<CAPTION ID=3232>
fria [frio] ADJ F S @>N
fila [fila] <coll-cc> <HH> <act> N F S @NPHR
de [de] PRP @N<
espera [espera] <activity> <per> N F S @P<

</CAPTION>
<CAPTION ID=3233>
multidão [multidão] <HH> N F S @NPHR
.

</CAPTION>
<CAPTION ID=33>
em [em] <sam-> PRP @ADVL
a [o] <-sam> <artd> DET F S @>N
fila [fila] <coll-cc> <HH> <act> N F S @P<

</CAPTION>
<CAPTION ID=3321>
grupo [grupo] <HH> N M S @NPHR
de [de] PRP @N<
pessoas [pessoa] <H> N F P @P<
"

</CAPTION>
<CAPTION ID=356>
pessoas [pessoa] <H> N F P @SUBJ>
aguardando [aguardar] <vt> V GER @IMV
por [por] PRP @<ADVL
serviço [serviço] <act-d> N M S @P<

</CAPTION>
<CAPTION ID=36>
pessoas [pessoa] <H> N F P @NPHR
em [em] <sam-> PRP @N<
a [o] <-sam> <artd> DET F S @>N
festa [festa] <occ> N F S @P<

</CAPTION>
<CAPTION ID=379>
grupo [grupo] <HH> N M S @SUBJ>
de [de] PRP @N<
pessoas [pessoa] <H> N F P @P<
esperando [esperar] <vi> V GER @IMV @#ICL-N< @#ICL-ADVL
.

</CAPTION>
<CAPTION ID=398>
pessoas [pessoa] <H> N F P @NPHR
sentadas [sentado] ADJ F P @N<

</CAPTION>
<CAPTION ID=4021>
senhora [senhora] <Htit> N F S @NPHR
e [e] KC @CO
crianças [criança] <H> N F P @NPHR
em [em] <sam-> PRP @N<
o [o] <-sam> <artd> DET M S @>N
frio [frio] <am> N M S @P<

</CAPTION>
<CAPTION ID=4023>
pessoas [pessoa] <H> N F P @NPHR
reunidas [reunir] <vt> V PCP F P @N<

</CAPTION>
<CAPTION ID=4024>
pessoas [pessoa] <H> N F P @NPHR
em [em] PRP @N<
uma [um] <arti> DET F S @>N
sala [sala] <Lh> N F S @P<
pequena [pequeno] ADJ F S @N<
.

</CAPTION>
<CAPTION ID=4025>
pessoas [pessoa] <H> N F P @SUBJ>
olhando [olhar] V GER @IMV
para [para] <sam-> PRP @<PIV
a [a] <artd> <-sam> DET F S @>N
foto [foto] <pict> N F S @P<

</CAPTION>
<CAPTION ID=4026>
idosa [idoso] ADJ F S @NPHR
e [e] KC @CO
crianças [criança] <H> N F P @NPHR
em [em] <sam-> PRP @N<
o [o] <-sam> <artd> DET M S @>N
frio [frio] <am> N M S @P<
.

</CAPTION>
<CAPTION ID=4027>
pessoas [pessoa] <H> N F P @NPHR
em [em] <sam-> PRP @N<
o [o] <-sam> <artd> DET M S @>N
frio [frio] <am> N M S @P<

</CAPTION>
<CAPTION ID=4028>
sentados [sentar] <n> V PCP M P @NPHR
a [a] <sam-> PRP @N<
a [o] <-sam> <artd> DET F S @>N
parede [parede] <part-build> <bar> <act-d> N F S @P<

</CAPTION>
<CAPTION ID=4030>
uma [um] <arti> DET F S @>N
reunião [reunião] <occ> N F S @NPHR
de [de] PRP @N<
pessoas [pessoa] <H> N F P @P<
.

</CAPTION>
<CAPTION ID=4032>
algumas [algum] <quant> DET F P @>N
pessoas [pessoa] <H> N F P @NPHR
reunidas [reunir] <vt> V PCP F P @N<

</CAPTION>
<CAPTION ID=405>
a [o] <artd> DET F S @>N
fila [fila] <coll-cc> <HH> <act> N F S @NPHR
de [de] PRP @N<
pessoas [pessoa] <H> N F P @P<
.

</CAPTION>
<CAPTION ID=430>
a [o] <artd> DET F S @>N
espera [espera] <activity> <per> N F S @NPHR
de [de] PRP @N<
mulheres [mulher] <Hbio> <Hfam> <Hattr> N F P @P<
e [e] KC @CO
criança [criança] <H> N F S @NPHR

</CAPTION>
<CAPTION ID=495>
senhora [senhora] <Htit> N F S @NPHR
e [e] KC @CO
crianças [criança] <H> N F P @NPHR
.

</CAPTION>
<CAPTION ID=5031>
pessoas [pessoa] <H> N F P @NPHR
em [em] PRP @N<
um [um] <arti> DET M S @>N
quarto [quarto] <Lh> <per> N M S @P<

</CAPTION>
<CAPTION ID=5032>
espera [esperar] <fmc> <vi> V PR 3S IND VFIN @FMV

</CAPTION>
<CAPTION ID=5033>
família [família] <HH> N F S @NPHR
reunida [reunir] <vt> V PCP F S @N<

</CAPTION>
<CAPTION ID=5034>
família [família] <HH> N F S @SUBJ>
reunida [reunir] <vt> V PCP F S @N<
aguardando [aguardar] <vt> V GER @IMV

</CAPTION>
<CAPTION ID=5035>
a [ela] PERS F 3S ACC @ACC>
espera [esperar] <fmc> <vt> V PR 3S IND VFIN @FMV

</CAPTION>
<CAPTION ID=5036>
pessoas [pessoa] <H> N F P @NPHR
em [em] PRP @N<
um [um] <arti> DET M S @>N
abrigo [abrigo] <Lh> N M S @P<

</CAPTION>
<CAPTION ID=521>
reunião [reunião] <occ> N F S @NPHR
em [em] PRP @N<
família [família] <HH> N F S @P<

</CAPTION>
<CAPTION ID=58>
pessoas [pessoa] <H> N F P @NPHR
sentadas [sentado] ADJ F P @N<

</CAPTION>
<CAPTION ID=684>
pessoas [pessoa] <H> N F P @SUBJ>
esperam [esperar] <fmc> <vi> V PR 3P IND VFIN @FMV
sentadas [sentado] ADJ F P @<PRED

</CAPTION>
<CAPTION ID=687>
tempo [tempo] <am> <temp> <per> <ac-cat> <wea> N M S @NPHR
de [de] PRP @N<
frio [frio] <am> N M S @P<

</CAPTION>
<CAPTION ID=76>
reunião [reunião] <occ> N F S @NPHR
em [em] PRP @N<
família [família] <HH> N F S @P<

</CAPTION>
<CAPTION ID=771>
crianças [criança] <H> N F P @NPHR
e [e] KC @CO
uma [um] <arti> DET F S @>N
velha [velho] <n> ADJ F S @NPHR
esperando [esperar] <vi> V GER @IMV @#ICL-ADVL

</CAPTION>
<CAPTION ID=772>
pessoas [pessoa] <H> N F P @NPHR
reunidas [reunir] <vt> V PCP F P @IMV @#ICL-N<
em [em] <sam-> PRP @<ADVL
o [o] <-sam> <artd> DET M S @>N
cômodo [cômodo] <am> N M S @P<

</CAPTION>
<CAPTION ID=781>
a [a] <sam-> PRP @ADVL
a [o] <-sam> <artd> DET F S @>N
espera [espera] <activity> <per> N F S @P<

</CAPTION>
<CAPTION ID=783>
pessoas [pessoa] <H> N F P @NPHR
em [em] PRP @N<
um [um] <card> NUM M S @>N
lugar [lugar] <L> <Labs> N M S @P<
frio [frio] ADJ M S @N<

</CAPTION>
<CAPTION ID=788>
encontro [encontro] <occ> <event> N M S @NPHR
de [de] PRP @N<
família [família] <HH> N F S @P<

</CAPTION>
<CAPTION ID=790>
família [família] <HH> N F S @NPHR
em [em] <sam-> PRP @N<
o [o] <-sam> <artd> DET M S @>N
inverno [inverno] <per> N M S @P<

</CAPTION>
<CAPTION ID=791>
festinha [festinha] <occ> N F S @NPHR
de [de] PRP @N<
aniversário [aniversário] <occ> N M S @P<

</CAPTION>
<CAPTION ID=799>
fileira [fileira] <coll-cc> <HH> N F S @NPHR
de [de] PRP @N<
pessoas [pessoa] <H> N F P @P<
sentadas [sentado] ADJ F P @N<

</CAPTION>
<CAPTION ID=811>
velha [velho] ADJ F S @NPHR
e [e] KC @CO
meninos [menino] <Hbio> N M P @NPHR

</CAPTION>
<CAPTION ID=820>
pessoas [pessoa] <H> N F P @SUBJ>
aguardando [aguardar] <vt> V GER @IMV
atendimento [atendimento] <act> N M S @<ACC

</CAPTION>
<CAPTION ID=821>
esperando [esperar] V GER @IMV @#ICL-ADVL
em [em] <sam-> PRP @<PIV
o [o] <-sam> <artd> DET M S @>N
inverno [inverno] <prop> <per> N M S @P<
!

</CAPTION>
<CAPTION ID=823>
família [família] <HH> N F S @NPHR
reunida [reunir] <vt> V PCP F S @N<

</CAPTION>
<CAPTION ID=826>
o [o] <artd> DET M S @>N
frio [frio] <am> N M S @NPHR
e [e] KC @CO
as [o] <artd> DET F P @>N
pessoas [pessoa] <H> N F P @NPHR

</CAPTION>
<CAPTION ID=827>
um [um] <arti> DET M S @>N
local [local] <Lh> N M S @NPHR
frio [frio] ADJ M S @N<
.

</CAPTION>
<CAPTION ID=828>
família [família] <HH> N F S @NPHR
reunida [reunir] <vt> V PCP F S @N<

</CAPTION>
<CAPTION ID=829>
pessoas [pessoa] <H> N F P @NPHR
em [em] PRP @N<
espera [espera] <activity> <per> N F S @P<

</CAPTION>
<CAPTION ID=83>
grupo [grupo] <HH> N M S @NPHR
de [de] PRP @N<
pessoas [pessoa] <H> N F P @P<
.

</CAPTION>
<CAPTION ID=830>
forte [forte] ADJ M S @>N
inverno [inverno] <per> N M S @NPHR
em [em] <sam-> PRP @N<
a [o] <-sam> <artd> DET F S @>N
região [região] <L> <Ltop> N F S @P<

</CAPTION>
<CAPTION ID=834>
família [família] <HH> N F S @NPHR

</CAPTION>
<CAPTION ID=835>
a [o] <artd> DET F S @>N
espera [espera] <activity> <per> N F S @NPHR
de [de] PRP @N<
médicos [médico] <Hprof> N M P @P<

</CAPTION>
<CAPTION ID=836>
esperando [esperar] V GER @IMV @#ICL-ADVL
por [por] PRP @<PIV
algo [algo] <quant> SPEC M S @P<
.

</CAPTION>
<CAPTION ID=837>
lugar [lugar] <L> <Labs> N M S @NPHR
com [com] PRP @N<
bastante [bastante] DET F S @>N
pessoas [pessoa] <H> N F P @P<

</CAPTION>
<CAPTION ID=838>
pessoas [pessoa] <H> N F P @SUBJ>
esperando [esperar] <vi> V GER @IMV
.

</CAPTION>
<CAPTION ID=839>
refugiados [refugiado] <H> N M P @NPHR

</CAPTION>
<CAPTION ID=840>
Pessoa [Pessoa] N F S @NPHR
em [em] PRP @ADVL
uma [um] <arti> DET F S @>N
sala [sala] <Lh> N F S @P<
cinza [cinza] ADJ F S @N<

</CAPTION>
<CAPTION ID=842>
família [família] <HH> N F S @SUBJ>
aguardando [aguardar] V GER @IMV
.

</CAPTION>
<CAPTION ID=844>
fila [fila] <coll-cc> <HH> <act> N F S @NPHR
de [de] PRP @N<
espera [espera] <activity> <per> N F S @P<
.

</CAPTION>
<CAPTION ID=850>
pessoas [pessoa] <H> N F P @SUBJ>
esperando [esperar] <vi> V GER @IMV
!
¶

</CAPTION>
<CAPTION ID=854>
pessoas [pessoa] <H> N F P @SUBJ>
passando [passar] <vt> V GER @IMV
frio [frio] <am> N M S @<ACC

</CAPTION>
<CAPTION ID=855>
reunião [reunião] <occ> N F S @NPHR
de [de] PRP @N<
família [família] <HH> N F S @P<

</CAPTION>
<CAPTION ID=856>
pessoas [pessoa] <H> N F P @NPHR
em [em] <sam-> PRP @N<
uma [um] <-sam> <arti> DET F S @>N
fila [fila] <coll-cc> <HH> <act> N F S @P<

</CAPTION>
<CAPTION ID=858>
família [família] <HH> N F S @NPHR
reunida [reunir] <vt> V PCP F S @N<

</CAPTION>
<CAPTION ID=859>
reunião [reunião] <occ> N F S @NPHR
de [de] PRP @N<
família [família] <HH> N F S @P<

</CAPTION>
<CAPTION ID=861>
fila [fila] <coll-cc> <HH> <act> N F S @NPHR
de [de] PRP @N<
espera [espera] <activity> <per> N F S @P<

</CAPTION>
<CAPTION ID=862>
grupo [grupo] <HH> N M S @SUBJ>
de [de] PRP @N<
pessoas [pessoa] <H> N F P @P<
a [ela] PERS F 3S ACC @ACC>
espera [esperar] <fmc> <vt> V PR 3S IND VFIN @FMV
.

</CAPTION>
<CAPTION ID=863>
pessoas [pessoa] <H> N F P @NPHR
em [em] PRP @N<
uma [um] <arti> DET F S @>N
fila [fila] <coll-cc> <HH> <act> N F S @P<
de [de] PRP @N<
espera [espera] <activity> <per> N F S @P<
.

</CAPTION>
<CAPTION ID=864>
pessoas [pessoa] <H> N F P @SUBJ>
aguardam [aguardar] <fmc> <vt> V PR 3P IND VFIN @FMV
atendimento [atendimento] <act> N M S @<ACC
.

</CAPTION>
<CAPTION ID=868>
chega [chegar] <fmc> <ve> <vi> V PR 3S IND VFIN @FMV
de [de] PRP @<ADVL
espera [espera] <activity> <per> N F S @P<
.

</CAPTION>
<CAPTION ID=870>
espera [espera] <activity> <per> N F S @NPHR
interminável [interminável] ADJ F S @N<
.

</CAPTION>
<CAPTION ID=875>
festa [festa] <occ> N F S @NPHR
de [de] PRP @N<
família [família] <prop> <HH> N F S @P<

</CAPTION>
<CAPTION ID=876>
pessoas [pessoa] <H> N F P @NPHR
em [em] PRP @N<
espera [espera] <activity> <per> N F S @P<

</CAPTION>
<CAPTION ID=878>
pessoas [pessoa] <H> N F P @NPHR
com [com] PRP @N<
roupas [roupa] <cm> <mat-cloth> N F P @P<
de [de] PRP @N<
frio [frio] <am> N M S @P<

</CAPTION>
<CAPTION ID=879>
fila [fila] <coll-cc> <HH> <act> N F S @NPHR
de [de] PRP @N<
espera [espera] <activity> <per> N F S @P<

</CAPTION>
<CAPTION ID=880>
a [o] <artd> DET F S @>N
senhora [senhora] <Htit> N F S @NPHR
branca [branco] ADJ F S @N<
.

</CAPTION>
<CAPTION ID=881>
esperando [esperar] V GER @IMV @#ICL-ADVL
em [em] <sam-> PRP @<PIV
o [o] <-sam> <artd> DET M S @>N
frio [frio] <am> N M S @P<

</CAPTION>
<CAPTION ID=882>
pessoas [pessoa] <H> N F P @NPHR
brancas [branco] ADJ F P @N<
em [em] PRP @N<
clima [clima] N M S @P<
frio [frio] ADJ M S @N<

</CAPTION>
<CAPTION ID=883>
a [ela] PERS F 3S ACC @ACC>
espera [esperar] <fmc> <vt> V PR 3S IND VFIN @FMV
.

</CAPTION>
<CAPTION ID=885>
pessoas [pessoa] <H> N F P @SUBJ>
aguardando [aguardar] <vt> V GER @IMV

</CAPTION>
<CAPTION ID=886>
pessoas [pessoa] <H> N F P @SUBJ>
aguardando [aguardar] <vt> V GER @IMV
auxílio [auxílio] <act> N M S @<ACC

</CAPTION>
<CAPTION ID=888>
mulheres [mulher] <Hbio> <Hfam> <Hattr> N F P @NPHR
e [e] KC @CO
crianças [criança] <H> N F P @NPHR

</CAPTION>
<CAPTION ID=889>
senhora [senhora] <Htit> N F S @NPHR
surpresa [surpreso] ADJ F S @N<
.

</CAPTION>
<CAPTION ID=890>
pessoas [pessoa] <H> N F P @NPHR
juntas [juntar] V PCP F P @IMV @#ICL-N<
com [com] PRP @<PIV
olhar [olhar] <act-d> N M S @P<
sério [sério] ADJ M S @N<

</CAPTION>
<CAPTION ID=891>
senhora [senhora] <Htit> N F S @NPHR
e [e] KC @CO
meninos [menino] <Hbio> N M P @NPHR
em [em] <sam-> PRP @N<
a [o] <-sam> <artd> DET F S @>N
multidão [multidão] <HH> N F S @P<

</CAPTION>
<CAPTION ID=892>
uma [um] <arti> DET F S @>N
foto [foto] <pict> N F S @NPHR
inesperada [inesperado] ADJ F S @N<

</CAPTION>
<CAPTION ID=893>
pessoas [pessoa] <H> N F P @SUBJ>
aguardando [aguardar] <vt> V GER @IMV
atendimento [atendimento] <act> N M S @<ACC

</CAPTION>
<CAPTION ID=903>
a [ela] PERS F 3S ACC @ACC>
espera [esperar] <fmc> <vt> V PR 3S IND VFIN @FMV

</CAPTION>
<CAPTION ID=904>
prestem [prestar] <fmc> <vt> V PR 3P SUBJ VFIN @FMV
atenção [atenção] <am> N F S @<ACC

</CAPTION>
<CAPTION ID=907>
a [ela] PERS F 3S ACC @ACC>
espera [esperar] <fmc> <vt> V PR 3S IND VFIN @FMV

</CAPTION>
<CAPTION ID=908>
imigrantes [imigrante] <H> N M/F P @NPHR

</CAPTION>
<CAPTION ID=909>
pessoas [pessoa] <H> N F P @SUBJ>
esperando [esperar] <vt> V GER @IMV

</CAPTION>
<CAPTION ID=910>
vigília [vigília] <per> <act-d> N F S @NPHR

</CAPTION>
<CAPTION ID=911>
agasalhados [agasalhar] <n> <vt> V PCP M P @NPHR
contra [contra] PRP @N<
o [o] <artd> DET M S @>N
frio [frio] <am> N M S @P<

</CAPTION>
<CAPTION ID=914>
fila [fila] <coll-cc> <HH> <act> N F S @NPHR
de [de] PRP @N<
espera [espera] <activity> <per> N F S @P<

</CAPTION>
<CAPTION ID=915>
duas [dois] <card> NUM F P @>N
gerações [geração] <HH> <act> N F P @NPHR

</CAPTION>
<CAPTION ID=916>
pessoas [pessoa] <H> N F P @SUBJ>
esperando [esperar] <vt> V GER @IMV

</CAPTION>
<CAPTION ID=917>
refugiados [refugiado] <H> N M P @NPHR
.

</CAPTION>
<CAPTION ID=918>
pessoas [pessoa] <H> N F P @NPHR
em [em] <sam-> PRP @N<
a [o] <-sam> <artd> DET F S @>N
estação [estação] <build> N F S @P<

</CAPTION>
<CAPTION ID=922>
noite [noite] <per> <temp> N F S @NPHR
gelada [gelado] ADJ F S @N<

</CAPTION>
<CAPTION ID=934>
refugiados [refugiado] <H> N M P @NPHR

</CAPTION>
<CAPTION ID=935>
senhora [senhora] <Htit> N F S @NPHR
em [em] <sam-> PRP @N<
a [o] <-sam> <artd> DET F S @>N
fila [fila] <coll-cc> <HH> <act> N F S @P<

</CAPTION>
<CAPTION ID=94>
grupo [grupo] <HH> N M S @NPHR
de [de] PRP @N<
pessoas [pessoa] <H> N F P @P<
sentadas [sentado] ADJ F P @N<

</CAPTION>
<CAPTION ID=945>
encontro [encontro] <occ> <event> N M S @NPHR
de [de] PRP @N<
gerações [geração] <HH> <act> N F P @P<

</CAPTION>
<CAPTION ID=946>
uma [um] <arti> DET F S @>N
família [família] <HH> N F S @SUBJ>
esperando [esperar] <vt> V GER @IMV @#ICL-ADVL

</CAPTION>
<CAPTION ID=947>
pessoas [pessoa] <H> N F P @NPHR
em [em] <sam-> PRP @N<
a [o] <-sam> <artd> DET F S @>N
fila [fila] <coll-cc> <HH> <act> N F S @P<
a [a] <sam-> PRP @ADVL
a [o] <-sam> <artd> DET F S @>N
espera [espera] <activity> <per> N F S @P<

</CAPTION>
<CAPTION ID=951>
a [o] <artd> DET F S @>N
mulher [mulher] <Hbio> <Hfam> <Hattr> N F S @NPHR
sentada [sentado] ADJ F S @N<

</CAPTION>
<CAPTION ID=982>
as [o] <artd> DET F P @>N
pessoas [pessoa] <H> N F P @NPHR

</CAPTION>
<CAPTION ID=991>
reunião [reunião] <occ> N F S @NPHR
em [em] PRP @N<
família [família] <HH> N F S @P<

</CAPTION>
