EXTRA,AGREE,CONSC,NEURO,OPEN,CONCEPT,STRING
3.88,3.22,3.11,1.63,3.7,2o501,terra
3.88,3.22,3.11,1.63,3.7,2o500,balde
3.88,3.22,3.11,1.63,3.7,2o503,barraco
2.38,3.11,3.22,3.13,2.2,2o513,imagem
2.38,3.11,3.22,3.13,2.2,2h1,criança
2.38,3.11,3.22,3.13,2.2,2o501,terra
2.38,3.11,3.22,3.13,2.2,2o500,balde
2.38,3.11,3.22,3.13,2.2,2o503,construção
2.38,3.11,3.22,3.13,2.2,2o532,ambiente
2.38,3.11,3.22,3.13,2.2,2o503,casa
1.75,3.67,2.67,2.88,4.1,2h1,criança
1.75,3.67,2.67,2.88,4.1,2o500,balde
1.75,3.67,2.67,2.88,4.1,2o511,arame
1.75,3.67,2.67,2.88,4.1,2h1,criança
1.75,3.67,2.67,2.88,4.1,2o500,balde
1.75,3.67,2.67,2.88,4.1,2o501,terra
1.75,3.67,2.67,2.88,4.1,2o500,balde
1.75,3.67,2.67,2.88,4.1,2h1,criança
1.75,3.67,2.67,2.88,4.1,2o501,terra
1.75,3.67,2.67,2.88,4.1,2o503,barraco
1.75,3.67,2.67,2.88,4.1,2o500,plástico
1.75,3.67,2.67,2.88,4.1,2o504,plástico
1.75,3.22,3.56,3.88,4.1,2h1,menino
1.75,3.22,3.56,3.88,4.1,2o501,terra
1.75,3.22,3.56,3.88,4.1,2o500,recipiente
1.75,3.22,3.56,3.88,4.1,2o511,metal
1.75,3.22,3.56,3.88,4.1,2o500,balde
1.75,3.22,3.56,3.88,4.1,2h1,menino
1.75,3.22,3.56,3.88,4.1,2h1,menino
1.75,3.22,3.56,3.88,4.1,2o503,barraco
1.75,3.22,3.56,3.88,4.1,2o500,plástico
1.75,3.22,3.56,3.88,4.1,2o504,plástico
3.13,4.0,1.89,3.75,3.0,2h1,criança
3.13,4.0,1.89,3.75,3.0,2o516,roupa
3.13,4.0,1.89,3.75,3.0,2o532,ambiente
3.13,4.0,1.89,3.75,3.0,2o503,casa
3.13,4.0,1.89,3.75,3.0,2o501,terra
3.13,4.0,1.89,3.75,3.0,2o500,balde
3.13,4.0,1.89,3.75,3.0,2o532,ambiente
3.13,4.0,1.89,3.75,3.0,2o503,casa
3.13,4.0,1.89,3.75,3.0,2o504,lona
3.13,4.0,1.89,3.75,3.0,2o512,chão
3.13,4.0,1.89,3.75,3.0,2o501,terra
3.38,3.33,2.89,3.75,3.8,2h1,criança
3.38,3.33,2.89,3.75,3.8,2o516,roupa
3.38,3.33,2.89,3.75,3.8,2o501,terra
3.38,3.33,2.89,3.75,3.8,2o532,área
3.38,3.33,2.89,3.75,3.8,2o503,barraco
4.75,4.22,2.56,2.75,4.6,2h1,criança
4.75,4.22,2.56,2.75,4.6,2o500,balde
4.75,4.22,2.56,2.75,4.6,2o501,terra
4.75,4.22,2.56,2.75,4.6,2o503,barraca
3.0,3.44,3.33,2.38,4.4,2h1,criança
3.0,3.44,3.33,2.38,4.4,2o500,balde
3.0,3.44,3.33,2.38,4.4,2o501,terra
3.0,3.44,3.33,2.38,4.4,2o500,balde
3.0,3.44,3.33,2.38,4.4,2o503,abrigo
3.0,3.44,3.33,2.38,4.4,2o500,plástico
3.0,3.44,3.33,2.38,4.4,2o504,plástico
3.0,3.44,3.33,2.38,4.4,2o509,vegetação
2.25,3.67,2.22,3.13,3.2,2h1,criança
2.25,3.67,2.22,3.13,3.2,2o500,balde
2.25,3.67,2.22,3.13,3.2,2o501,terra
2.25,3.67,2.22,3.13,3.2,2o503,barraco
2.25,3.67,2.22,3.13,3.2,2o532,lugar
2.25,3.67,2.22,3.13,3.2,2o501,terra
2.25,3.67,2.22,3.13,3.2,2o503,barraco
2.25,3.67,2.22,3.13,3.2,2o504,lona
2.25,3.67,2.22,3.13,3.2,2h1,criança
4.13,3.22,3.11,3.5,3.4,2o503,moradia
4.13,3.22,3.11,3.5,3.4,2o501,terra
4.13,3.22,3.11,3.5,3.4,2o513,imagem
4.13,3.22,3.11,3.5,3.4,2o503,moradia
4.25,3.67,4.67,2.5,3.5,2h1,menino
4.25,3.67,4.67,2.5,3.5,2o501,terra
4.25,3.67,4.67,2.5,3.5,2o503,cabana
4.25,3.67,4.67,2.5,3.5,2o500,plástico
4.25,3.67,4.67,2.5,3.5,2o504,plástico
4.63,3.56,3.44,3.38,3.6,2h1,criança
4.63,3.56,3.44,3.38,3.6,2o501,terra
4.63,3.56,3.44,3.38,3.6,2o500,balde
4.63,3.56,3.44,3.38,3.6,2h1,menino
4.63,3.56,3.44,3.38,3.6,2o501,terra
4.63,3.56,3.44,3.38,3.6,2o503,barraco
4.63,3.56,3.44,3.38,3.6,2o504,lona
4.63,3.56,3.44,3.38,3.6,2o506,madeira
4.63,3.56,3.44,3.38,3.6,2o503,barraco
4.13,3.78,3.78,1.88,3.4,2o500,balde
4.13,3.78,3.78,1.88,3.4,2o501,terra
4.13,3.78,3.78,1.88,3.4,2h1,garoto
4.13,3.78,3.78,1.88,3.4,2o503,barraco
4.13,3.78,3.78,1.88,3.4,2o504,lona
4.13,3.78,3.78,1.88,3.4,2o503,barraco
4.13,3.78,3.78,1.88,3.4,2o513,cenário
4.13,3.78,3.78,1.88,3.4,2h1,garoto
4.0,3.56,3.33,4.75,3.2,2h1,criança
4.0,3.56,3.33,4.75,3.2,2o501,terra
4.0,3.56,3.33,4.75,3.2,2o500,balde
4.0,3.56,3.33,4.75,3.2,2o511,metal
4.0,3.56,3.33,4.75,3.2,2h1,criança
4.0,3.56,3.33,4.75,3.2,2o500,balde
4.0,3.56,3.33,4.75,3.2,2o516,camisa
4.0,3.56,3.33,4.75,3.2,2h1,criança
4.0,3.56,3.33,4.75,3.2,2o501,terra
4.0,3.56,3.33,4.75,3.2,2o503,barraca
4.0,3.56,3.33,4.75,3.2,2o505,telha
4.0,3.56,3.33,4.75,3.2,2o504,lona
1.75,3.0,3.89,4.75,3.0,2o513,foto
1.75,3.0,3.89,4.75,3.0,2h1,menino
1.75,3.0,3.89,4.75,3.0,2o516,camisa
1.75,3.0,3.89,4.75,3.0,2o501,terra
1.75,3.0,3.89,4.75,3.0,2o500,balde
1.75,3.0,3.89,4.75,3.0,2o503,casa
1.75,3.0,3.89,4.75,3.0,2o505,telhado
1.75,3.0,3.89,4.75,3.0,2o500,plástico
1.75,3.0,3.89,4.75,3.0,2o504,plástico
1.75,3.0,3.89,4.75,3.0,2o503,casa
1.75,3.0,3.89,4.75,3.0,2o503,casa
1.75,3.0,3.89,4.75,3.0,2o500,plástico
1.75,3.0,3.89,4.75,3.0,2o504,plástico
1.75,3.0,3.89,4.75,3.0,2o501,terra
1.75,3.0,3.89,4.75,3.0,2o512,chão
3.0,3.67,4.22,3.25,3.7,2o512,terreno
3.0,3.67,4.22,3.25,3.7,2o503,barraca
3.0,3.67,4.22,3.25,3.7,2o506,madeira
3.0,3.67,4.22,3.25,3.7,2o504,lona
3.0,3.67,4.22,3.25,3.7,2h1,criança
3.0,3.67,4.22,3.25,3.7,2o516,roupa
3.0,3.67,4.22,3.25,3.7,2o501,terra
3.0,3.67,4.22,3.25,3.7,2o500,balde
3.0,3.67,4.22,3.25,3.7,2o511,arame
3.5,3.78,2.67,3.63,4.3,2h1,criança
3.5,3.78,2.67,3.63,4.3,2o500,balde
3.5,3.78,2.67,3.63,4.3,2o501,terra
3.5,3.78,2.67,3.63,4.3,2o511,metal
3.5,3.78,2.67,3.63,4.3,2h1,criança
3.5,3.78,2.67,3.63,4.3,2o512,chão
3.5,3.78,2.67,3.63,4.3,2o501,terra
3.5,3.78,2.67,3.63,4.3,2o500,balde
3.5,3.78,2.67,3.63,4.3,2o511,metal
3.5,3.78,2.67,3.63,4.3,2o506,madeira
3.5,3.78,2.67,3.63,4.3,2o503,construção
3.5,3.78,2.67,3.63,4.3,2o509,vegetação
2.88,2.11,4.56,5.0,4.8,2h1,garoto
2.88,2.11,4.56,5.0,4.8,2o500,balde
2.88,2.11,4.56,5.0,4.8,2o511,ferro
2.88,2.11,4.56,5.0,4.8,2o501,terra
2.88,2.11,4.56,5.0,4.8,2o504,lona
3.38,3.56,2.78,4.13,4.0,2h1,criança
3.38,3.56,2.78,4.13,4.0,2o500,balde
3.38,3.56,2.78,4.13,4.0,2o501,terra
3.38,3.56,2.78,4.13,4.0,2o511,ferro
3.38,3.56,2.78,4.13,4.0,2o503,moradia
3.38,3.56,2.78,4.13,4.0,2o504,lona
3.38,3.56,2.78,4.13,4.0,2h1,criança
4.13,4.11,3.33,2.75,3.8,2o513,imagem
4.13,4.11,3.33,2.75,3.8,2o503,abrigo
4.13,4.11,3.33,2.75,3.8,2o504,lona
4.13,4.11,3.33,2.75,3.8,2o506,bambu
4.13,4.11,3.33,2.75,3.8,2o503,abrigo
4.13,4.11,3.33,2.75,3.8,2h1,criança
4.13,4.11,3.33,2.75,3.8,2h1,menino
4.13,4.11,3.33,2.75,3.8,2o516,camisa
4.13,4.11,3.33,2.75,3.8,2o511,ferro
4.13,4.11,3.33,2.75,3.8,2o501,terra
4.13,4.11,3.33,2.75,3.8,2o500,balde
4.13,4.11,3.33,2.75,3.8,2o513,imagem
4.13,4.11,3.33,2.75,3.8,2o502,muro
4.13,4.11,3.33,2.75,3.8,2o501,barro
4.13,4.11,3.33,2.75,3.8,2h1,menino
3.88,4.89,2.89,1.75,3.7,2o513,imagem
3.88,4.89,2.89,1.75,3.7,2h1,criança
3.88,4.89,2.89,1.75,3.7,2o501,terra
3.88,4.89,2.89,1.75,3.7,2o511,ferro
3.88,4.89,2.89,1.75,3.7,2o500,balde
3.88,4.89,2.89,1.75,3.7,2o500,plástico
3.88,4.89,2.89,1.75,3.7,2o504,plástico
3.88,4.89,2.89,1.75,3.7,2o501,terra
3.88,4.89,2.89,1.75,3.7,2o512,chão
3.88,4.89,2.89,1.75,3.7,2o504,lona
3.88,4.89,2.89,1.75,3.7,2o503,barraco
2.88,3.44,3.0,2.13,3.7,2o509,mata
2.88,3.44,3.0,2.13,3.7,2o504,lona
2.88,3.44,3.0,2.13,3.7,2o500,plástico
2.88,3.44,3.0,2.13,3.7,2o504,plástico
2.88,3.44,3.0,2.13,3.7,2o506,madeira
2.88,3.44,3.0,2.13,3.7,2o502,muro
2.88,3.44,3.0,2.13,3.7,2o532,área
2.88,3.44,3.0,2.13,3.7,2o501,terra
2.88,3.44,3.0,2.13,3.7,2o501,terra
2.88,3.44,3.0,2.13,3.7,2h1,garoto
2.88,3.44,3.0,2.13,3.7,2o511,ferro
2.88,3.44,3.0,2.13,3.7,2o500,balde
2.88,3.44,3.0,2.13,3.7,2o501,terra
4.0,3.89,3.78,2.25,3.9,2h1,criança
4.0,3.89,3.78,2.25,3.9,2o516,roupa
4.0,3.89,3.78,2.25,3.9,2o500,balde
4.0,3.89,3.78,2.25,3.9,2o501,terra
4.0,3.89,3.78,2.25,3.9,2o532,local
4.0,3.89,3.78,2.25,3.9,2o501,terra
3.25,3.11,4.0,2.88,4.1,2h1,menino
3.25,3.11,4.0,2.88,4.1,2o512,chão
3.25,3.11,4.0,2.88,4.1,2o501,terra
3.25,3.11,4.0,2.88,4.1,2o500,vasilha
3.25,3.11,4.0,2.88,4.1,2o511,ferro
3.25,3.11,4.0,2.88,4.1,2o501,terra
3.25,3.11,4.0,2.88,4.1,2o500,balde
3.25,3.11,4.0,2.88,4.1,2o500,recipiente
3.25,3.11,4.0,2.88,4.1,2o508,lixo
4.13,3.44,2.67,1.88,3.6,2h1,criança
4.13,3.44,2.67,1.88,3.6,2o501,terra
4.13,3.44,2.67,1.88,3.6,2o500,balde
4.13,3.44,2.67,1.88,3.6,2o503,barraco
4.13,3.44,2.67,1.88,3.6,2o500,plástico
4.13,3.44,2.67,1.88,3.6,2o504,plástico
4.13,3.44,2.67,1.88,3.6,2o532,área
4.0,4.44,3.44,1.5,4.0,2h1,criança
4.0,4.44,3.44,1.5,4.0,2o503,casa
4.0,4.44,3.44,1.5,4.0,2o501,terra
4.0,4.44,3.44,1.5,4.0,2o511,ferro
4.0,4.44,3.44,1.5,4.0,2o503,casa
4.0,4.44,3.44,1.5,4.0,2o508,lixo
4.0,4.78,3.56,1.38,3.6,2o503,barraco
4.0,4.78,3.56,1.38,3.6,2o500,plástico
4.0,4.78,3.56,1.38,3.6,2o504,plástico
4.0,4.78,3.56,1.38,3.6,2o512,chão
4.0,4.78,3.56,1.38,3.6,2h1,criança
4.0,4.78,3.56,1.38,3.6,2o500,balde
4.0,4.78,3.56,1.38,3.6,2o501,terra
4.0,4.78,3.56,1.38,3.6,2o500,vasilha
4.0,4.78,3.56,1.38,3.6,2o511,ferro
4.0,4.78,3.56,1.38,3.6,2o512,chão
4.0,4.78,3.56,1.38,3.6,2o501,terra
4.75,4.56,4.33,3.88,3.9,2h1,menino
4.75,4.56,4.33,3.88,3.9,2o501,terra
4.75,4.56,4.33,3.88,3.9,2o511,ferro
4.75,4.56,4.33,3.88,3.9,2o500,balde
4.75,4.56,4.33,3.88,3.9,2o500,plástico
4.75,4.56,4.33,3.88,3.9,2o504,plástico
4.75,4.56,4.33,3.88,3.9,2o532,local
4.75,4.56,4.33,3.88,3.9,2o512,chão
4.75,4.56,4.33,3.88,3.9,2o501,terra
4.75,4.56,4.33,3.88,3.9,2o503,barraco
4.75,4.56,4.33,3.88,3.9,2o503,barraco
2.25,3.22,3.67,3.25,3.5,2o513,imagem
2.25,3.22,3.67,3.25,3.5,2h1,criança
2.25,3.22,3.67,3.25,3.5,2o501,terra
2.25,3.22,3.67,3.25,3.5,2o500,balde
2.25,3.22,3.67,3.25,3.5,2o511,metal
2.25,3.22,3.67,3.25,3.5,2o504,lona
2.25,3.22,3.67,3.25,3.5,2o501,terra
3.63,3.56,2.33,4.13,3.6,2h1,criança
3.63,3.56,2.33,4.13,3.6,2o500,balde
3.63,3.56,2.33,4.13,3.6,2o501,terra
3.63,3.56,2.33,4.13,3.6,2h1,criança
3.63,3.56,2.33,4.13,3.6,2o532,ambiente
3.63,3.56,2.33,4.13,3.6,2o512,chão
3.63,3.56,2.33,4.13,3.6,2o501,terra
3.63,3.56,2.33,4.13,3.6,2o503,barraco
3.63,3.56,2.33,4.13,3.6,2o504,saco
3.63,3.56,2.33,4.13,3.6,2o508,lixo
3.63,3.56,2.33,4.13,3.6,2o503,construção
3.63,3.56,2.33,4.13,3.6,2o506,bambu
3.25,3.33,4.44,2.5,3.5,2h1,menino
3.25,3.33,4.44,2.5,3.5,2o516,roupa
3.25,3.33,4.44,2.5,3.5,2o501,terra
3.25,3.33,4.44,2.5,3.5,2o500,balde
3.25,3.33,4.44,2.5,3.5,2o511,arame
3.25,3.33,4.44,2.5,3.5,2o532,área
3.25,3.33,4.44,2.5,3.5,2o509,mata
3.25,3.33,4.44,2.5,3.5,2o501,terra
3.25,3.33,4.44,2.5,3.5,2o502,muro
3.25,3.33,4.44,2.5,3.5,2o505,telha
3.25,3.33,4.44,2.5,3.5,2o503,barraco
3.25,3.33,4.44,2.5,3.5,2o504,lona
2.25,3.44,2.22,4.25,3.5,2h1,criança
2.25,3.44,2.22,4.25,3.5,2o501,terra
2.25,3.44,2.22,4.25,3.5,2o500,balde
2.25,3.44,2.22,4.25,3.5,2o512,chão
2.25,3.44,2.22,4.25,3.5,2o501,terra
2.25,3.44,2.22,4.25,3.5,2o502,muro
2.25,3.44,2.22,4.25,3.5,2o503,barraco
2.25,3.44,2.22,4.25,3.5,2o504,lona
2.25,3.44,2.22,4.25,3.5,2o500,plástico
2.25,3.44,2.22,4.25,3.5,2o504,plástico
3.88,3.78,4.33,3.0,4.4,2h1,criança
3.88,3.78,4.33,3.0,4.4,2o501,terra
3.88,3.78,4.33,3.0,4.4,2o512,chão
3.88,3.78,4.33,3.0,4.4,2o500,balde
3.88,3.78,4.33,3.0,4.4,2h1,menino
3.88,3.78,4.33,3.0,4.4,2o503,barraco
3.88,3.78,4.33,3.0,4.4,2o500,plástico
3.88,3.78,4.33,3.0,4.4,2o504,plástico
2.0,2.67,1.78,3.5,4.2,2h1,menino
2.0,2.67,1.78,3.5,4.2,2o501,terra
2.0,2.67,1.78,3.5,4.2,2o500,pote
2.0,2.67,1.78,3.5,4.2,2o500,balde
2.0,2.67,1.78,3.5,4.2,2o512,chão
2.0,2.67,1.78,3.5,4.2,2o532,lugar
2.0,2.67,1.78,3.5,4.2,2o501,terra
2.0,2.67,1.78,3.5,4.2,2o503,construção
2.0,2.67,1.78,3.5,4.2,2o504,lona
2.0,2.67,1.78,3.5,4.2,2o509,vegetação
2.25,3.78,3.56,3.63,3.7,2o532,local
2.25,3.78,3.56,3.63,3.7,2o509,vegetação
2.25,3.78,3.56,3.63,3.7,2o532,local
2.25,3.78,3.56,3.63,3.7,2h1,criança
2.25,3.78,3.56,3.63,3.7,2o516,roupa
2.25,3.78,3.56,3.63,3.7,2o501,terra
2.25,3.78,3.56,3.63,3.7,2o500,vasilha
2.25,3.78,3.56,3.63,3.7,2o511,ferro
2.25,3.78,3.56,3.63,3.7,2o500,balde
3.25,3.0,3.0,3.25,3.9,2o513,cena
3.25,3.0,3.0,3.25,3.9,2h1,bebê
3.25,3.0,3.0,3.25,3.9,2o501,terra
3.25,3.0,3.0,3.25,3.9,2o501,terra
3.25,3.0,3.0,3.25,3.9,2o500,balde
3.25,3.0,3.0,3.25,3.9,2h1,bebê
3.25,3.0,3.0,3.25,3.9,2o501,terra
3.25,3.0,3.0,3.25,3.9,2o502,muro
3.25,3.0,3.0,3.25,3.9,2o503,construção
3.25,3.0,3.0,3.25,3.9,2o503,barraco
3.25,3.0,3.0,3.25,3.9,2o500,plástico
3.25,3.0,3.0,3.25,3.9,2o504,plástico
3.25,3.0,3.0,3.25,3.9,2o500,plástico
3.25,3.0,3.0,3.25,3.9,2o504,plástico
3.25,3.0,3.0,3.25,3.9,2o532,área
1.75,3.89,3.0,2.38,3.7,2h1,menino
1.75,3.89,3.0,2.38,3.7,2o500,balde
1.75,3.89,3.0,2.38,3.7,2o501,terra
1.75,3.89,3.0,2.38,3.7,2o500,balde
1.75,3.89,3.0,2.38,3.7,2o503,barraco
1.75,3.89,3.0,2.38,3.7,2o504,lona
1.75,3.89,3.0,2.38,3.7,2o505,telha
1.75,3.89,3.0,2.38,3.7,2o506,bambu
1.75,3.89,3.0,2.38,3.7,2o509,vegetação
2.0,3.11,2.22,1.88,2.7,2h1,bebê
2.0,3.11,2.22,1.88,2.7,2o500,balde
2.0,3.11,2.22,1.88,2.7,2o501,terra
2.0,3.11,2.22,1.88,2.7,2o503,barraco
2.0,3.11,2.22,1.88,2.7,2o504,saco
2.0,3.11,2.22,1.88,2.7,2o500,plástico
2.0,3.11,2.22,1.88,2.7,2o504,plástico
2.0,3.11,2.22,1.88,2.7,2h1,menino
2.0,3.11,2.22,1.88,2.7,2o502,muro
2.0,3.11,2.22,1.88,2.7,2o503,barraco
2.0,3.11,2.22,1.88,2.7,2o503,casa
2.0,3.11,2.22,1.88,2.7,2h1,menino
2.0,3.11,2.22,1.88,2.7,2o505,telhado
2.0,3.11,2.22,1.88,2.7,2o503,casa
2.0,3.11,2.22,1.88,2.7,2o500,plástico
2.0,3.11,2.22,1.88,2.7,2o504,plástico
2.0,3.11,2.22,1.88,2.7,2o500,plástico
2.0,3.11,2.22,1.88,2.7,2o504,plástico
2.0,3.11,2.22,1.88,2.7,2o508,lixo
2.0,3.11,2.22,1.88,2.7,2o502,muro
2.0,3.11,2.22,1.88,2.7,2o503,casa
2.0,3.11,2.22,1.88,2.7,2o502,muro
3.25,4.11,3.44,3.38,4.3,2h1,criança
3.25,4.11,3.44,3.38,4.3,2o532,ambiente
3.25,4.11,3.44,3.38,4.3,2h1,criança
3.5,3.44,3.56,4.13,3.2,2h1,criança
3.5,3.44,3.56,4.13,3.2,2o500,balde
3.5,3.44,3.56,4.13,3.2,2o501,terra
3.5,3.44,3.56,4.13,3.2,2o501,barro
3.5,3.44,3.56,4.13,3.2,2o504,lona
3.5,3.44,3.56,4.13,3.2,2o503,barraco
3.5,3.44,3.56,4.13,3.2,2o502,muro
3.5,3.44,3.56,4.13,3.2,2h1,criança
3.5,3.44,3.56,4.13,3.2,2o503,barraco
3.5,3.44,3.56,4.13,3.2,2o502,muro
4.63,3.56,2.67,3.5,2.8,2h1,menino
4.63,3.56,2.67,3.5,2.8,2o501,terra
4.63,3.56,2.67,3.5,2.8,2o500,balde
4.63,3.56,2.67,3.5,2.8,2o503,barraco
4.63,3.56,2.67,3.5,2.8,2o504,lona
2.88,3.44,3.78,3.13,4.6,2o513,foto
2.88,3.44,3.78,3.13,4.6,2h1,garoto
2.88,3.44,3.78,3.13,4.6,2o501,terra
2.88,3.44,3.78,3.13,4.6,2o500,recipiente
2.88,3.44,3.78,3.13,4.6,2o500,balde
2.88,3.44,3.78,3.13,4.6,2o500,plástico
2.88,3.44,3.78,3.13,4.6,2o504,plástico
2.88,3.44,3.78,3.13,4.6,2h1,garoto
2.88,3.44,3.78,3.13,4.6,2h1,garoto
2.88,3.44,3.78,3.13,4.6,2o501,terra
2.88,3.44,3.78,3.13,4.6,2o501,terra
2.88,3.44,3.78,3.13,4.6,2o503,barraco
2.88,3.44,3.78,3.13,4.6,2o506,madeira
2.88,3.44,3.78,3.13,4.6,2o500,plástico
2.88,3.44,3.78,3.13,4.6,2o504,plástico
2.88,3.44,3.78,3.13,4.6,2h1,garoto
3.38,3.0,3.56,2.25,4.0,2h1,criança
3.38,3.0,3.56,2.25,4.0,2h1,bebê
3.38,3.0,3.56,2.25,4.0,2o501,terra
3.38,3.0,3.56,2.25,4.0,2o503,casa
3.38,3.0,3.56,2.25,4.0,2o532,área
3.38,3.0,3.56,2.25,4.0,2o501,barro
3.38,3.0,3.56,2.25,4.0,2o512,chão
3.38,3.0,3.56,2.25,4.0,2o501,terra
3.38,3.0,3.56,2.25,4.0,2h1,bebê
3.38,3.0,3.56,2.25,4.0,2o501,terra
3.38,3.0,3.56,2.25,4.0,2o500,balde
3.38,3.0,3.56,2.25,4.0,2o500,plástico
3.38,3.0,3.56,2.25,4.0,2o504,plástico
3.38,3.0,3.56,2.25,4.0,2h1,criança
2.63,4.11,3.56,3.0,3.5,2o513,cena
2.63,4.11,3.56,3.0,3.5,2h1,menino
2.63,4.11,3.56,3.0,3.5,2o501,terra
2.63,4.11,3.56,3.0,3.5,2o500,balde
2.63,4.11,3.56,3.0,3.5,2o532,local
2.63,4.11,3.56,3.0,3.5,2o503,construção
2.63,4.11,3.56,3.0,3.5,2o502,muro
2.63,4.11,3.56,3.0,3.5,2h1,criança
2.63,4.11,3.56,3.0,3.5,2o503,barraca
2.63,4.11,3.56,3.0,3.5,2o500,plástico
2.63,4.11,3.56,3.0,3.5,2o504,plástico
2.75,3.78,2.33,3.38,3.3,2o513,cena
2.75,3.78,2.33,3.38,3.3,2h1,criança
2.75,3.78,2.33,3.38,3.3,2o501,terra
2.75,3.78,2.33,3.38,3.3,2o503,cabana
4.13,4.22,4.22,1.88,3.6,2h1,criança
4.13,4.22,4.22,1.88,3.6,2o501,terra
4.13,4.22,4.22,1.88,3.6,2o500,balde
4.13,4.22,4.22,1.88,3.6,2o503,barraco
4.13,4.22,4.22,1.88,3.6,2o504,lona
4.13,4.22,4.22,1.88,3.6,2o532,local
4.13,4.22,4.22,1.88,3.6,2o532,local
3.25,3.11,2.44,1.63,2.4,2h1,criança
3.25,3.11,2.44,1.63,2.4,2o501,terra
3.25,3.11,2.44,1.63,2.4,2o503,casa
3.25,3.11,2.44,1.63,2.4,2o500,balde
3.25,3.11,2.44,1.63,2.4,2o513,foto
3.25,3.11,2.44,1.63,2.4,2o503,casa
3.25,3.11,2.44,1.63,2.4,2o503,barraco
3.25,3.11,2.44,1.63,2.4,2o504,lona
3.25,3.11,2.44,1.63,2.4,2h1,criança
3.13,3.89,3.89,2.63,3.6,2h1,garoto
3.13,3.89,3.89,2.63,3.6,2o500,balde
3.13,3.89,3.89,2.63,3.6,2o501,terra
3.13,3.89,3.89,2.63,3.6,2o503,cabana
3.13,3.89,3.89,2.63,3.6,2o503,abrigo
3.13,3.89,3.89,2.63,3.6,2o504,lona
3.13,3.89,3.89,2.63,3.6,2o504,lona
4.25,4.11,1.56,3.75,3.7,2o500,balde
4.25,4.11,1.56,3.75,3.7,2o501,terra
4.25,4.11,1.56,3.75,3.7,2o500,balde
4.25,4.11,1.56,3.75,3.7,2o503,abrigo
4.25,4.11,1.56,3.75,3.7,2o512,chão
4.25,4.11,1.56,3.75,3.7,2o501,terra
4.25,4.11,1.56,3.75,3.7,2o509,vegetação
4.25,4.11,1.56,3.75,3.7,2o513,imagem
2.63,3.22,4.0,2.13,3.7,2o501,terra
2.63,3.22,4.0,2.13,3.7,2o500,balde
2.63,3.22,4.0,2.13,3.7,2o532,lugar
2.63,3.22,4.0,2.13,3.7,2o501,terra
2.63,3.22,4.0,2.13,3.7,2o503,barraco
2.63,3.22,4.0,2.13,3.7,2o503,casa
2.63,3.22,4.0,2.13,3.7,2o503,barraco
2.63,3.22,4.0,2.13,3.7,2o503,barraco
3.25,3.33,3.0,2.63,3.9,2o512,terreno
3.25,3.33,3.0,2.63,3.9,2o503,casa
3.25,3.33,3.0,2.63,3.9,2o500,plástico
3.25,3.33,3.0,2.63,3.9,2o504,plástico
3.25,3.33,3.0,2.63,3.9,2h1,criança
3.25,3.33,3.0,2.63,3.9,2o516,camisa
3.25,3.33,3.0,2.63,3.9,2h1,menino
3.25,3.33,3.0,2.63,3.9,2o501,terra
3.25,3.33,3.0,2.63,3.9,2o512,chão
3.25,3.33,3.0,2.63,3.9,2o512,terreno
3.25,3.33,3.0,2.63,3.9,2o500,balde
3.25,3.33,3.0,2.63,3.9,2o511,arame
3.38,3.67,4.56,3.75,3.6,2h1,criança
3.38,3.67,4.56,3.75,3.6,2o500,balde
3.38,3.67,4.56,3.75,3.6,2o511,arame
3.38,3.67,4.56,3.75,3.6,2o500,balde
3.38,3.67,4.56,3.75,3.6,2h1,criança
3.38,3.67,4.56,3.75,3.6,2o516,camisa
3.38,3.67,4.56,3.75,3.6,2o512,chão
3.38,3.67,4.56,3.75,3.6,2o501,terra
3.38,3.67,4.56,3.75,3.6,2h1,criança
3.38,3.67,4.56,3.75,3.6,2o501,terra
3.38,3.67,4.56,3.75,3.6,2o500,balde
3.38,3.67,4.56,3.75,3.6,2o502,muro
3.38,3.67,4.56,3.75,3.6,2o503,cabana
3.38,3.67,4.56,3.75,3.6,2o504,lona
2.63,3.33,3.56,2.75,3.8,2o513,foto
2.63,3.33,3.56,2.75,3.8,2h1,menino
2.63,3.33,3.56,2.75,3.8,2o501,terra
2.63,3.33,3.56,2.75,3.8,2o500,balde
2.63,3.33,3.56,2.75,3.8,2o500,balde
2.63,3.33,3.56,2.75,3.8,2o503,barraca
2.63,3.33,3.56,2.75,3.8,2o504,lona
2.25,4.44,4.0,2.88,4.7,2h1,menino
2.25,4.44,4.0,2.88,4.7,2o501,terra
2.25,4.44,4.0,2.88,4.7,2o500,balde
2.25,4.44,4.0,2.88,4.7,2o504,lona
2.25,4.44,4.0,2.88,4.7,2o500,balde
2.25,4.44,4.0,2.88,4.7,2o511,arame
2.25,4.44,4.0,2.88,4.7,2o512,chão
2.25,4.44,4.0,2.88,4.7,2o501,terra
2.25,4.44,4.0,2.88,4.7,2o500,balde
2.25,4.44,4.0,2.88,4.7,2h1,menino
2.13,4.44,3.89,2.13,4.0,2h1,criança
2.13,4.44,3.89,2.13,4.0,2o500,balde
2.13,4.44,3.89,2.13,4.0,2o501,terra
2.13,4.44,3.89,2.13,4.0,2h1,criança
2.13,4.44,3.89,2.13,4.0,2o511,ferro
2.13,4.44,3.89,2.13,4.0,2o501,terra
2.13,4.44,3.89,2.13,4.0,2o512,chão
2.13,4.44,3.89,2.13,4.0,2o500,balde
2.13,4.44,3.89,2.13,4.0,2o503,barraco
2.13,4.44,3.89,2.13,4.0,2o504,lona
2.13,4.44,3.89,2.13,4.0,2o503,construção
1.63,4.33,4.0,2.5,4.1,2h1,criança
1.63,4.33,4.0,2.5,4.1,2o501,terra
1.63,4.33,4.0,2.5,4.1,2o511,metal
1.63,4.33,4.0,2.5,4.1,2o500,balde
1.63,4.33,4.0,2.5,4.1,2o500,plástico
1.63,4.33,4.0,2.5,4.1,2o504,plástico
1.63,4.33,4.0,2.5,4.1,2o512,terreno
1.63,4.33,4.0,2.5,4.1,2o503,construção
1.63,4.33,4.0,2.5,4.1,2o503,barraco
1.63,4.33,4.0,2.5,4.1,2o504,lona
1.63,4.33,4.0,2.5,4.1,2o532,área
3.75,4.22,4.44,1.38,4.5,2o513,imagem
3.75,4.22,4.44,1.38,4.5,2h1,criança
3.75,4.22,4.44,1.38,4.5,2o501,terra
3.75,4.22,4.44,1.38,4.5,2o501,terra
3.75,4.22,4.44,1.38,4.5,2o500,balde
3.75,4.22,4.44,1.38,4.5,2h1,criança
3.75,4.22,4.44,1.38,4.5,2o516,camisa
3.75,4.22,4.44,1.38,4.5,2o511,metal
3.75,4.22,4.44,1.38,4.5,2o501,terra
3.75,4.22,4.44,1.38,4.5,2o500,balde
3.75,4.22,4.44,1.38,4.5,2o500,plástico
3.75,4.22,4.44,1.38,4.5,2o504,plástico
3.75,4.22,4.44,1.38,4.5,2o500,balde
3.75,4.22,4.44,1.38,4.5,2o513,imagem
3.75,4.22,4.44,1.38,4.5,2o503,barraco
3.75,4.22,4.44,1.38,4.5,2o506,bambu
3.75,4.22,4.44,1.38,4.5,2o513,imagem
3.75,4.22,4.44,1.38,4.5,2o509,vegetação
2.88,3.44,2.56,2.13,4.1,2h1,criança
2.88,3.44,2.56,2.13,4.1,2o501,terra
2.88,3.44,2.56,2.13,4.1,2o500,balde
2.88,3.44,2.56,2.13,4.1,2o511,arame
2.88,3.44,2.56,2.13,4.1,2o512,chão
2.88,3.44,2.56,2.13,4.1,2o501,terra
2.88,3.44,2.56,2.13,4.1,2o503,casa
2.88,3.44,2.56,2.13,4.1,2o511,ferro
2.88,3.44,2.56,2.13,4.1,2o504,saco
2.88,3.44,2.56,2.13,4.1,2o500,plástico
2.88,3.44,2.56,2.13,4.1,2o504,plástico
2.88,3.44,2.56,2.13,4.1,2o503,casa
2.88,3.44,2.56,2.13,4.1,2h1,criança
3.88,3.33,3.44,2.5,3.8,2h1,criança
3.88,3.33,3.44,2.5,3.8,2h1,menino
3.88,3.33,3.44,2.5,3.8,2o501,terra
3.88,3.33,3.44,2.5,3.8,2o500,recipiente
3.88,3.33,3.44,2.5,3.8,2o500,balde
3.88,3.33,3.44,2.5,3.8,2o503,barraco
2.13,3.56,2.89,2.25,3.5,2h1,criança
2.13,3.56,2.89,2.25,3.5,2o501,terra
2.13,3.56,2.89,2.25,3.5,2o500,balde
2.13,3.56,2.89,2.25,3.5,2o504,lona
2.13,3.56,2.89,2.25,3.5,2o506,madeira
2.13,3.56,2.89,2.25,3.5,2o512,chão
2.13,3.56,2.89,2.25,3.5,2o501,terra
4.63,4.33,4.0,1.75,4.1,2o513,cena
4.63,4.33,4.0,1.75,4.1,2h1,menino
4.63,4.33,4.0,1.75,4.1,2o500,balde
4.63,4.33,4.0,1.75,4.1,2o501,terra
4.63,4.33,4.0,1.75,4.1,2o503,barraco
4.63,4.33,4.0,1.75,4.1,2o505,telhado
2.25,3.78,3.0,2.38,4.0,2o501,terra
2.25,3.78,3.0,2.38,4.0,2h1,garoto
2.25,3.78,3.0,2.38,4.0,2o501,terra
2.25,3.78,3.0,2.38,4.0,2o503,barraco
2.25,3.78,3.0,2.38,4.0,2o504,lona
2.25,3.78,3.0,2.38,4.0,2o506,madeira
2.25,3.78,3.0,2.38,4.0,2h1,garoto
2.5,4.33,4.33,2.25,3.9,2h1,criança
2.5,4.33,4.33,2.25,3.9,2o500,balde
2.5,4.33,4.33,2.25,3.9,2o501,terra
2.5,4.33,4.33,2.25,3.9,2o503,casa
2.5,4.33,4.33,2.25,3.9,2o504,lona
2.5,4.33,4.33,2.25,3.9,2o504,saco
2.5,4.33,4.33,2.25,3.9,2o508,lixo
3.5,2.78,3.33,3.38,4.1,2h1,criança
3.5,2.78,3.33,3.38,4.1,2o501,terra
3.5,2.78,3.33,3.38,4.1,2o503,barraco
3.5,2.78,3.33,3.38,4.1,2o504,lona
3.5,2.78,3.33,3.38,4.1,2o505,telha
3.5,2.78,3.33,3.38,4.1,2h1,menino
3.5,2.78,3.33,3.38,4.1,2o501,terra
3.5,2.78,3.33,3.38,4.1,2o500,balde
3.5,2.78,3.33,3.38,4.1,2o511,arame
2.88,3.89,3.78,1.5,4.0,2h1,criança
2.88,3.89,3.78,1.5,4.0,2o501,terra
2.88,3.89,3.78,1.5,4.0,2o501,terra
2.88,3.89,3.78,1.5,4.0,2o500,balde
2.88,3.89,3.78,1.5,4.0,2h1,criança
2.88,3.89,3.78,1.5,4.0,2o532,área
2.88,3.89,3.78,1.5,4.0,2o503,barraco
2.88,3.89,3.78,1.5,4.0,2o506,madeira
2.88,3.89,3.78,1.5,4.0,2o504,lona
2.88,3.89,3.78,1.5,4.0,2o505,telha
2.75,3.0,4.11,2.63,4.0,2h1,criança
2.75,3.0,4.11,2.63,4.0,2o500,pote
2.75,3.0,4.11,2.63,4.0,2o501,terra
2.75,3.0,4.11,2.63,4.0,2o500,balde
2.75,3.0,4.11,2.63,4.0,2o503,barraca
2.75,3.0,4.11,2.63,4.0,2o504,lona
2.75,3.0,4.11,2.63,4.0,2o500,plástico
2.75,3.0,4.11,2.63,4.0,2o504,plástico
4.25,4.0,3.67,3.13,3.6,2h1,criança
4.25,4.0,3.67,3.13,3.6,2o501,areia
4.25,4.0,3.67,3.13,3.6,2o500,balde
4.25,4.0,3.67,3.13,3.6,2o503,casa
4.25,4.0,3.67,3.13,3.6,2o504,saco
4.25,4.0,3.67,3.13,3.6,2h1,criança
1.38,3.56,3.22,1.5,3.25,2h1,menino
1.38,3.56,3.22,1.5,3.25,2o500,balde
1.38,3.56,3.22,1.5,3.25,2o501,terra
1.38,3.56,3.22,1.5,3.25,2o500,balde
1.38,3.56,3.22,1.5,3.25,2o509,vegetação
1.38,3.56,3.22,1.5,3.25,2h1,menino
1.38,3.56,3.22,1.5,3.25,2o516,camisa
1.38,3.56,3.22,1.5,3.25,2o503,barraco
1.38,3.56,3.22,1.5,3.25,2o504,saco
2.13,4.0,1.78,3.25,4.3,2h1,criança
2.13,4.0,1.78,3.25,4.3,2o501,terra
2.13,4.0,1.78,3.25,4.3,2o500,balde
2.13,4.0,1.78,3.25,4.3,2o501,terra
2.13,4.0,1.78,3.25,4.3,2o503,barraco
2.13,4.0,1.78,3.25,4.3,2o500,plástico
2.13,4.0,1.78,3.25,4.3,2o504,plástico
2.13,4.0,1.78,3.25,4.3,2h1,criança
4.38,4.0,3.22,1.5,4.5,2h1,criança
4.38,4.0,3.22,1.5,4.5,2o501,terra
4.38,4.0,3.22,1.5,4.5,2o500,balde
4.38,4.0,3.22,1.5,4.5,2o532,lugar
4.38,4.0,3.22,1.5,4.5,2o503,casa
4.38,4.0,3.22,1.5,4.5,2o501,terra
4.38,4.0,3.22,1.5,4.5,2o504,lona
4.38,4.0,3.22,1.5,4.5,2o503,casa
4.38,4.0,3.22,1.5,4.5,2o532,lugar
2.63,3.44,2.67,2.25,3.6,2h1,garoto
2.63,3.44,2.67,2.25,3.6,2o501,terra
2.63,3.44,2.67,2.25,3.6,2o500,balde
2.63,3.44,2.67,2.25,3.6,2o503,casa
2.63,3.44,2.67,2.25,3.6,2o500,plástico
2.63,3.44,2.67,2.25,3.6,2o504,plástico
2.63,3.44,2.67,2.25,3.6,2o509,vegetação
3.13,3.33,3.0,3.25,3.2,2o503,casa
3.13,3.33,3.0,3.25,3.2,2o503,casa
3.13,3.33,3.0,3.25,3.2,2o504,lona
3.13,3.33,3.0,3.25,3.2,2o502,muro
3.13,3.33,3.0,3.25,3.2,2o503,casa
3.13,3.33,3.0,3.25,3.2,2o512,terreno
3.13,3.33,3.0,3.25,3.2,2o501,terra
3.13,3.33,3.0,3.25,3.2,2o501,terra
3.13,3.33,3.0,3.25,3.2,2o511,ferro
3.13,3.33,3.0,3.25,3.2,2o500,balde
3.13,3.33,3.0,3.25,3.2,2o500,plástico
3.13,3.33,3.0,3.25,3.2,2o504,plástico
3.13,3.33,3.0,3.25,3.2,2o511,arame
3.0,3.67,4.78,3.38,3.8,2h1,criança
3.0,3.67,4.78,3.38,3.8,2o501,terra
3.0,3.67,4.78,3.38,3.8,2o500,balde
3.0,3.67,4.78,3.38,3.8,2o501,terra
3.0,3.67,4.78,3.38,3.8,2o512,chão
3.0,3.67,4.78,3.38,3.8,2o503,barraca
3.0,3.67,4.78,3.38,3.8,2o504,saco
3.0,3.67,4.78,3.38,3.8,2o503,casa
3.0,3.67,4.78,3.38,3.8,2o503,casa
3.0,4.11,3.33,2.0,4.2,2o532,local
3.0,4.11,3.33,2.0,4.2,2o503,barraco
3.0,4.11,3.33,2.0,4.2,2o500,plástico
3.0,4.11,3.33,2.0,4.2,2o504,plástico
3.0,4.11,3.33,2.0,4.2,2o503,barraco
3.0,4.11,3.33,2.0,4.2,2h1,criança
3.0,4.11,3.33,2.0,4.2,2o501,terra
3.0,4.11,3.33,2.0,4.2,2o503,barraco
3.0,4.11,3.33,2.0,4.2,2h1,criança
3.0,4.11,3.33,2.0,4.2,2o500,pote
3.0,4.11,3.33,2.0,4.2,2o501,terra
3.0,4.11,3.33,2.0,4.2,2o500,balde
3.0,4.11,3.33,2.0,4.2,2o503,construção
4.5,3.22,4.33,4.63,3.6,2h1,menino
4.5,3.22,4.33,4.63,3.6,2o501,terra
4.5,3.22,4.33,4.63,3.6,2o500,balde
4.5,3.22,4.33,4.63,3.6,2o512,chão
4.5,3.22,4.33,4.63,3.6,2o501,terra
4.5,3.22,4.33,4.63,3.6,2h1,criança
4.5,3.22,4.33,4.63,3.6,2h1,criança
4.5,3.22,4.33,4.63,3.6,2h1,criança
4.5,3.22,4.33,4.63,3.6,2o501,terra
4.5,3.22,4.33,4.63,3.6,2h1,menino
4.5,3.22,4.33,4.63,3.6,2o503,barraco
4.5,3.22,4.33,4.63,3.6,2o500,plástico
4.5,3.22,4.33,4.63,3.6,2o504,plástico
4.5,3.22,4.33,4.63,3.6,2o506,bambu
3.75,4.0,4.56,2.38,4.4,2h1,menino
3.75,4.0,4.56,2.38,4.4,2o500,balde
3.75,4.0,4.56,2.38,4.4,2o501,terra
3.75,4.0,4.56,2.38,4.4,2o500,balde
3.75,4.0,4.56,2.38,4.4,2o503,abrigo
2.13,3.0,2.56,3.75,3.7,2o513,cena
2.13,3.0,2.56,3.75,3.7,2h1,garoto
2.13,3.0,2.56,3.75,3.7,2h1,criança
2.13,3.0,2.56,3.75,3.7,2o501,terra
2.13,3.0,2.56,3.75,3.7,2o501,terra
2.13,3.0,2.56,3.75,3.7,2o500,balde
2.13,3.0,2.56,3.75,3.7,2o503,construção
2.13,3.0,2.56,3.75,3.7,2o500,plástico
2.13,3.0,2.56,3.75,3.7,2o504,plástico
1.88,3.11,2.44,3.63,4.3,2o513,imagem
1.88,3.11,2.44,3.63,4.3,2h1,criança
1.88,3.11,2.44,3.63,4.3,2o501,terra
1.88,3.11,2.44,3.63,4.3,2o500,balde
1.88,3.11,2.44,3.63,4.3,2h1,criança
1.88,3.11,2.44,3.63,4.3,2o503,barraco
1.88,3.11,2.44,3.63,4.3,2h1,criança
3.63,3.44,3.11,2.63,3.5,2h1,criança
3.63,3.44,3.11,2.63,3.5,2o513,cenário
3.63,3.44,3.11,2.63,3.5,2o501,terra
3.63,3.44,3.11,2.63,3.5,2o500,balde
3.63,3.44,3.11,2.63,3.5,2o503,barraco
3.63,3.44,3.11,2.63,3.5,2o506,madeira
3.75,3.89,3.33,2.38,3.9,2h1,criança
3.75,3.89,3.33,2.38,3.9,2o500,balde
3.75,3.89,3.33,2.38,3.9,2o501,terra
3.75,3.89,3.33,2.38,3.9,2o500,balde
3.75,3.89,3.33,2.38,3.9,2o503,casa
3.75,3.89,3.33,2.38,3.9,2o501,barro
3.25,3.33,2.78,3.13,3.8,2o513,imagem
3.25,3.33,2.78,3.13,3.8,2h1,criança
3.25,3.33,2.78,3.13,3.8,2o501,terra
3.25,3.33,2.78,3.13,3.8,2o500,balde
3.25,3.33,2.78,3.13,3.8,2o500,plástico
3.25,3.33,2.78,3.13,3.8,2o504,plástico
3.25,3.33,2.78,3.13,3.8,2h1,criança
3.25,3.33,2.78,3.13,3.8,2o501,terra
3.25,3.33,2.78,3.13,3.8,2o513,imagem
3.25,3.33,2.78,3.13,3.8,2o503,barraco
3.25,3.33,2.78,3.13,3.8,2o500,plástico
3.25,3.33,2.78,3.13,3.8,2o504,plástico
3.25,3.33,2.78,3.13,3.8,2o503,barraco
3.25,3.33,2.78,3.13,3.8,2h1,criança
3.25,3.33,2.78,3.13,3.8,2o532,área
3.25,3.33,2.78,3.13,3.8,2o501,terra
1.75,3.56,2.78,2.5,4.3,2h1,menino
1.75,3.56,2.78,2.5,4.3,2o501,terra
1.75,3.56,2.78,2.5,4.3,2o500,balde
1.75,3.56,2.78,2.5,4.3,2o500,plástico
1.75,3.56,2.78,2.5,4.3,2o504,plástico
3.75,3.44,2.78,3.25,3.9,2h1,menino
3.75,3.44,2.78,3.25,3.9,2o501,terra
3.75,3.44,2.78,3.25,3.9,2o500,balde
3.75,3.44,2.78,3.25,3.9,2o500,plástico
3.75,3.44,2.78,3.25,3.9,2o504,plástico
3.75,3.44,2.78,3.25,3.9,2o503,casa
3.75,3.44,2.78,3.25,3.9,2o504,saco
3.75,3.44,2.78,3.25,3.9,2o500,plástico
3.75,3.44,2.78,3.25,3.9,2o504,plástico
3.38,4.89,4.78,2.13,4.6,2o503,casa
3.38,4.89,4.78,2.13,4.6,2o503,construção
3.38,4.89,4.78,2.13,4.6,2h1,criança
3.38,4.89,4.78,2.13,4.6,2o501,terra
3.38,4.89,4.78,2.13,4.6,2o500,balde
3.38,4.89,4.78,2.13,4.6,2h1,criança
3.38,4.89,4.78,2.13,4.6,2o503,construção
3.38,4.89,4.78,2.13,4.6,2o513,cenário
3.38,4.89,4.78,2.13,4.6,2o500,plástico
3.38,4.89,4.78,2.13,4.6,2o504,plástico
3.38,4.89,4.78,2.13,4.6,2o503,construção
2.88,3.44,4.0,4.63,3.1,2o513,foto
2.88,3.44,4.0,4.63,3.1,2h1,criança
2.88,3.44,4.0,4.63,3.1,2o501,terra
2.88,3.44,4.0,4.63,3.1,2o512,chão
2.88,3.44,4.0,4.63,3.1,2o500,balde
2.88,3.44,4.0,4.63,3.1,2o503,barraco
2.88,3.44,4.0,4.63,3.1,2o500,plástico
2.88,3.44,4.0,4.63,3.1,2o504,plástico
4.88,4.33,3.78,1.75,4.0,2o503,barraco
4.88,4.33,3.78,1.75,4.0,2o503,barraco
4.88,4.33,3.78,1.75,4.0,2o501,terra
4.88,4.33,3.78,1.75,4.0,2h1,criança
4.88,4.33,3.78,1.75,4.0,2o501,terra
4.88,4.33,3.78,1.75,4.0,2o500,balde
4.88,4.33,3.78,1.75,4.0,2h1,criança
3.88,4.33,4.78,2.25,3.3,2h1,menino
3.88,4.33,4.78,2.25,3.3,2h1,criança
3.88,4.33,4.78,2.25,3.3,2o501,terra
3.88,4.33,4.78,2.25,3.3,2o500,balde
3.88,4.33,4.78,2.25,3.3,2o516,camisa
3.88,4.33,4.78,2.25,3.3,2o532,local
3.88,4.33,4.78,2.25,3.3,2o501,terra
3.88,4.33,4.78,2.25,3.3,2o503,casa
3.75,3.67,2.56,3.13,3.8,2o512,terreno
3.75,3.67,2.56,3.13,3.8,2o501,terra
3.75,3.67,2.56,3.13,3.8,2o503,barraco
3.75,3.67,2.56,3.13,3.8,2o504,lona
3.75,3.67,2.56,3.13,3.8,2o532,área
3.75,3.67,2.56,3.13,3.8,2o532,área
3.75,3.67,2.56,3.13,3.8,2h1,garoto
3.75,3.67,2.56,3.13,3.8,2o516,camisa
3.75,3.67,2.56,3.13,3.8,2o511,ferro
3.75,3.67,2.56,3.13,3.8,2o501,terra
3.75,3.67,2.56,3.13,3.8,2o500,balde
3.75,3.67,2.56,3.13,3.8,2o511,arame
3.63,3.22,3.22,2.38,3.4,2o504,lona
3.63,3.22,3.22,2.38,3.4,2o501,terra
3.63,3.22,3.22,2.38,3.4,2o512,chão
3.63,3.22,3.22,2.38,3.4,2o500,balde
3.63,3.22,3.22,2.38,3.4,2o500,balde
3.63,3.22,3.22,2.38,3.4,2o500,plástico
3.63,3.22,3.22,2.38,3.4,2o504,plástico
3.63,3.22,3.22,2.38,3.4,2o501,terra
3.63,3.22,3.22,2.38,3.4,2o500,balde
2.63,3.33,3.0,3.75,3.2,2h1,criança
2.63,3.33,3.0,3.75,3.2,2o501,terra
2.63,3.33,3.0,3.75,3.2,2o500,balde
2.63,3.33,3.0,3.75,3.2,2h1,criança
2.63,3.33,3.0,3.75,3.2,2o501,terra
2.63,3.33,3.0,3.75,3.2,2o503,moradia
2.63,3.33,3.0,3.75,3.2,2o504,lona
2.63,3.33,3.0,3.75,3.2,2o506,bambu
2.63,3.33,3.0,3.75,3.2,2o503,casa
4.25,4.22,3.67,2.63,4.5,2o513,cena
4.25,4.22,3.67,2.63,4.5,2h1,criança
4.25,4.22,3.67,2.63,4.5,2h1,bebê
4.25,4.22,3.67,2.63,4.5,2h1,criança
4.25,4.22,3.67,2.63,4.5,2o501,terra
4.25,4.22,3.67,2.63,4.5,2o500,balde
4.38,3.78,3.56,3.0,4.0,2h1,criança
4.38,3.78,3.56,3.0,4.0,2o500,pote
4.38,3.78,3.56,3.0,4.0,2o501,terra
4.38,3.78,3.56,3.0,4.0,2o500,balde
4.38,3.78,3.56,3.0,4.0,2o532,lugar
4.38,3.78,3.56,3.0,4.0,2o532,ambiente
4.38,3.78,3.56,3.0,4.0,2o506,madeira
4.38,3.78,3.56,3.0,4.0,2o500,plástico
4.38,3.78,3.56,3.0,4.0,2o504,plástico
4.38,3.78,3.56,3.0,4.0,2o512,chão
4.38,3.78,3.56,3.0,4.0,2o501,terra
4.38,3.78,3.56,3.0,4.0,2h1,criança
4.38,3.78,3.56,3.0,4.0,2o509,mata
4.38,3.11,3.67,2.75,3.7,2o513,imagem
4.38,3.11,3.67,2.75,3.7,2h1,criança
4.38,3.11,3.67,2.75,3.7,2o501,terra
4.38,3.11,3.67,2.75,3.7,2o500,balde
4.38,3.11,3.67,2.75,3.7,2o511,ferro
4.38,3.11,3.67,2.75,3.7,2o532,área
4.38,3.11,3.67,2.75,3.7,2o503,cabana
4.38,3.11,3.67,2.75,3.7,2o504,saco
4.38,3.11,3.67,2.75,3.7,2o508,lixo
2.25,3.78,2.67,3.0,3.4,2o513,cena
2.25,3.78,2.67,3.0,3.4,2h1,criança
2.25,3.78,2.67,3.0,3.4,2o501,terra
2.25,3.78,2.67,3.0,3.4,2o500,balde
2.25,3.78,2.67,3.0,3.4,2h1,menino
2.25,3.78,2.67,3.0,3.4,2o503,construção
2.25,3.78,2.67,3.0,3.4,2o504,lona
2.25,3.78,2.67,3.0,3.4,2o504,lona
2.25,3.78,2.67,3.0,3.4,2o506,bambu
2.25,3.78,2.67,3.0,3.4,2o503,casa
2.25,3.78,2.67,3.0,3.4,2o509,mata
3.38,4.44,3.44,3.0,3.6,2h1,menino
3.38,4.44,3.44,3.0,3.6,2o501,terra
3.38,4.44,3.44,3.0,3.6,2o501,terra
3.38,4.44,3.44,3.0,3.6,2o500,balde
3.38,4.44,3.44,3.0,3.6,2o500,recipiente
3.38,4.44,3.44,3.0,3.6,2o511,ferro
3.38,4.44,3.44,3.0,3.6,2o512,terreno
3.38,4.44,3.44,3.0,3.6,2o503,barraco
3.38,4.44,3.44,3.0,3.6,2o504,saco
3.38,4.44,3.44,3.0,3.6,2o501,barro
3.38,4.44,3.44,3.0,3.6,2o504,lona
3.25,3.89,2.67,3.13,3.6,2h1,menino
3.25,3.89,2.67,3.13,3.6,2o516,roupa
3.25,3.89,2.67,3.13,3.6,2o504,lona
3.25,3.89,2.67,3.13,3.6,2o509,vegetação
3.25,3.89,2.67,3.13,3.6,2o501,terra
3.25,3.89,2.67,3.13,3.6,2o500,vasilha
3.25,3.89,2.67,3.13,3.6,2o511,ferro
4.13,3.33,3.0,3.88,3.9,2o513,cena
4.13,3.33,3.0,3.88,3.9,2h1,criança
4.13,3.33,3.0,3.88,3.9,2o501,areia
4.13,3.33,3.0,3.88,3.9,2o500,balde
4.13,3.33,3.0,3.88,3.9,2h1,menino
4.13,3.33,3.0,3.88,3.9,2o500,plástico
4.13,3.33,3.0,3.88,3.9,2o504,plástico
4.13,3.33,3.0,3.88,3.9,2o503,moradia
4.13,3.33,3.0,3.88,3.9,2o532,ambiente
3.75,4.11,3.33,3.88,4.9,2o503,barraco
3.75,4.11,3.33,3.88,4.9,2o504,lona
3.75,4.11,3.33,3.88,4.9,2o513,cena
3.75,4.11,3.33,3.88,4.9,2o501,terra
3.75,4.11,3.33,3.88,4.9,2o501,terra
3.75,4.11,3.33,3.88,4.9,2o500,balde
1.13,3.33,2.89,4.25,2.8,2h1,criança
1.13,3.33,2.89,4.25,2.8,2o501,terra
1.13,3.33,2.89,4.25,2.8,2o500,recipiente
1.13,3.33,2.89,4.25,2.8,2o500,balde
1.13,3.33,2.89,4.25,2.8,2o503,construção
1.13,3.33,2.89,4.25,2.8,2o532,lugar
1.13,3.33,2.89,4.25,2.8,2o503,construção
1.13,3.33,2.89,4.25,2.8,2o500,plástico
1.13,3.33,2.89,4.25,2.8,2o504,plástico
2.63,3.11,3.89,2.5,3.3,2o513,cena
2.63,3.11,3.89,2.5,3.3,2h1,criança
2.63,3.11,3.89,2.5,3.3,2o532,ambiente
2.63,3.11,3.89,2.5,3.3,2o532,ambiente
2.63,3.11,3.89,2.5,3.3,2o500,balde
2.63,3.11,3.89,2.5,3.3,2o501,terra
2.63,3.11,3.89,2.5,3.3,2o513,imagem
2.63,3.11,3.89,2.5,3.3,2o503,barraco
2.63,3.11,3.89,2.5,3.3,2o506,bambu
3.0,2.56,2.67,2.88,2.5,2o513,imagem
3.0,2.56,2.67,2.88,2.5,2h1,menino
3.0,2.56,2.67,2.88,2.5,2o501,terra
3.0,2.56,2.67,2.88,2.5,2o500,balde
3.0,2.56,2.67,2.88,2.5,2o513,imagem
3.0,2.56,2.67,2.88,2.5,2o503,barraco
3.0,2.56,2.67,2.88,2.5,2o500,plástico
3.0,2.56,2.67,2.88,2.5,2o504,plástico
3.63,3.78,2.89,4.13,3.3,2h1,criança
3.63,3.78,2.89,4.13,3.3,2o500,balde
3.63,3.78,2.89,4.13,3.3,2o501,areia
3.63,3.78,2.89,4.13,3.3,2o512,chão
3.63,3.78,2.89,4.13,3.3,2o501,terra
3.63,3.78,2.89,4.13,3.3,2o503,casa
3.63,3.78,2.89,4.13,3.3,2o504,lona
3.63,3.78,2.89,4.13,3.3,2o506,madeira
4.63,3.44,3.11,4.25,4.4,2h1,criança
4.63,3.44,3.11,4.25,4.4,2o501,terra
4.63,3.44,3.11,4.25,4.4,2o532,local
4.63,3.44,3.11,4.25,4.4,2o503,barraco
4.63,3.44,3.11,4.25,4.4,2o500,plástico
4.63,3.44,3.11,4.25,4.4,2o504,plástico
4.63,3.44,3.11,4.25,4.4,2o503,casa
4.63,3.44,3.11,4.25,4.4,2o512,chão
4.63,3.44,3.11,4.25,4.4,2o501,terra
3.88,4.33,4.0,3.5,3.9,2h1,menino
3.88,4.33,4.0,3.5,3.9,2h1,bebê
3.88,4.33,4.0,3.5,3.9,2o500,balde
3.88,4.33,4.0,3.5,3.9,2o500,plástico
3.88,4.33,4.0,3.5,3.9,2o504,plástico
3.88,4.33,4.0,3.5,3.9,2o501,terra
3.88,4.33,4.0,3.5,3.9,2o500,recipiente
3.88,4.33,4.0,3.5,3.9,2o511,metal
3.88,4.33,4.0,3.5,3.9,2o532,local
3.88,4.33,4.0,3.5,3.9,2o503,cabana
3.88,4.33,4.0,3.5,3.9,2o504,lona
3.88,4.33,4.0,3.5,3.9,2o500,plástico
3.88,4.33,4.0,3.5,3.9,2o504,plástico
3.75,3.44,3.11,4.13,3.7,2h1,menino
3.75,3.44,3.11,4.13,3.7,2o511,ferro
3.75,3.44,3.11,4.13,3.7,2o501,terra
3.75,3.44,3.11,4.13,3.7,2o500,balde
3.75,3.44,3.11,4.13,3.7,2o503,casa
3.75,3.44,3.11,4.13,3.7,2o504,lona
3.75,3.44,3.11,4.13,3.7,2o532,lugar
3.75,3.44,3.11,4.13,3.7,2o503,construção
3.75,3.44,3.11,4.13,3.7,2o505,telha
3.75,3.44,3.11,4.13,3.7,2o504,lona
3.75,3.44,3.11,4.13,3.7,2o532,lugar
1.38,3.67,2.78,2.88,2.9,2o503,barraco
1.38,3.67,2.78,2.88,2.9,2o504,lona
1.38,3.67,2.78,2.88,2.9,2o501,barro
1.38,3.67,2.78,2.88,2.9,2o512,terreno
1.38,3.67,2.78,2.88,2.9,2o501,terra
1.38,3.67,2.78,2.88,2.9,2h1,criança
1.38,3.67,2.78,2.88,2.9,2o501,terra
1.38,3.67,2.78,2.88,2.9,2o500,balde
3.25,3.67,2.89,2.5,3.4,2h1,criança
3.25,3.67,2.89,2.5,3.4,2o501,terra
3.25,3.67,2.89,2.5,3.4,2o500,balde
3.25,3.67,2.89,2.5,3.4,2o512,chão
3.25,3.67,2.89,2.5,3.4,2o501,terra
3.25,3.67,2.89,2.5,3.4,2h1,criança
3.25,3.67,2.89,2.5,3.4,2o504,saco
3.25,3.67,2.89,2.5,3.4,2o500,plástico
3.25,3.67,2.89,2.5,3.4,2o504,plástico
3.25,3.67,2.89,2.5,3.4,2o505,telha
3.25,3.67,2.89,2.5,3.4,2o512,chão
3.25,3.67,2.89,2.5,3.4,2o503,barraco
3.88,3.44,3.89,3.5,3.7,2o513,imagem
3.88,3.44,3.89,3.5,3.7,2h1,criança
3.88,3.44,3.89,3.5,3.7,2o501,terra
3.88,3.44,3.89,3.5,3.7,2o500,balde
3.88,3.44,3.89,3.5,3.7,2o513,imagem
3.88,3.44,3.89,3.5,3.7,2o503,barraco
3.88,3.44,3.89,3.5,3.7,2o504,lona
3.88,3.44,3.89,3.5,3.7,2h1,criança
3.88,3.44,3.89,3.5,3.7,2o516,roupa
3.63,3.56,2.44,4.0,4.1,2h1,menino
3.63,3.56,2.44,4.0,4.1,2o532,ambiente
3.63,3.56,2.44,4.0,4.1,2o506,madeira
3.63,3.56,2.44,4.0,4.1,2h1,menino
3.63,3.56,2.44,4.0,4.1,2o501,terra
3.63,3.56,2.44,4.0,4.1,2o500,balde
3.63,3.56,2.44,4.0,4.1,2o500,balde
3.63,3.56,2.44,4.0,4.1,2o512,chão
3.63,3.56,2.44,4.0,4.1,2o501,terra
3.63,3.56,2.44,4.0,4.1,2o500,balde
3.63,3.56,2.44,4.0,4.1,2o511,arame
2.63,3.56,4.22,3.38,3.8,2h1,criança
2.63,3.56,4.22,3.38,3.8,2o500,balde
2.63,3.56,4.22,3.38,3.8,2o501,terra
2.63,3.56,4.22,3.38,3.8,2o532,local
2.63,3.56,4.22,3.38,3.8,2h1,criança
2.63,3.56,4.22,3.38,3.8,2o516,camisa
2.63,3.56,4.22,3.38,3.8,2o532,local
2.63,3.56,4.22,3.38,3.8,2o503,barraco
2.63,3.56,4.22,3.38,3.8,2o504,lona
2.63,3.56,4.22,3.38,3.8,2o509,vegetação
2.63,3.56,4.22,3.38,3.8,2o532,local
3.63,4.22,3.56,2.38,4.0,2h1,menino
3.63,4.22,3.56,2.38,4.0,2o500,pote
3.63,4.22,3.56,2.38,4.0,2o501,terra
3.63,4.22,3.56,2.38,4.0,2o500,balde
3.63,4.22,3.56,2.38,4.0,2h1,criança
3.63,4.22,3.56,2.38,4.0,2o503,barraco
3.63,4.22,3.56,2.38,4.0,2o500,plástico
3.63,4.22,3.56,2.38,4.0,2o504,plástico
3.63,4.22,3.56,2.38,4.0,2o512,chão
3.63,4.22,3.56,2.38,4.0,2o501,terra
3.63,4.22,3.56,2.38,4.0,2o532,lugar
3.75,3.89,3.33,3.63,3.8,2o513,cena
3.75,3.89,3.33,3.63,3.8,2h1,menino
3.75,3.89,3.33,3.63,3.8,2o500,recipiente
3.75,3.89,3.33,3.63,3.8,2o501,terra
3.75,3.89,3.33,3.63,3.8,2o500,balde
3.75,3.89,3.33,3.63,3.8,2o513,cenário
3.75,3.89,3.33,3.63,3.8,2o503,barraco
3.75,3.89,3.33,3.63,3.8,2o504,lona
3.75,3.89,3.33,3.63,3.8,2o532,lugar
3.75,3.89,3.33,3.63,3.8,2h1,criança
3.88,3.11,3.22,3.13,4.1,2o513,imagem
3.88,3.11,3.22,3.13,4.1,2h1,bebê
3.88,3.11,3.22,3.13,4.1,2h1,criança
3.88,3.11,3.22,3.13,4.1,2o532,área
3.88,3.11,3.22,3.13,4.1,2o501,terra
3.88,3.11,3.22,3.13,4.1,2o501,terra
3.88,3.11,3.22,3.13,4.1,2o500,balde
3.88,3.11,3.22,3.13,4.1,2o500,vasilha
3.88,3.11,3.22,3.13,4.1,2o511,metal
3.88,3.11,3.22,3.13,4.1,2o501,terra
3.88,3.11,3.22,3.13,4.1,2o512,chão
3.88,3.11,3.22,3.13,4.1,2o500,balde
3.88,3.11,3.22,3.13,4.1,2o513,imagem
3.88,3.11,3.22,3.13,4.1,2o503,barraco
3.88,3.11,3.22,3.13,4.1,2o504,lona
3.88,3.11,3.22,3.13,4.1,2o506,madeira
3.88,3.11,3.22,3.13,4.1,2o513,imagem
1.88,4.11,3.11,2.88,2.7,2o532,lugar
1.88,4.11,3.11,2.88,2.7,2o503,barraca
1.88,4.11,3.11,2.88,2.7,2o500,plástico
1.88,4.11,3.11,2.88,2.7,2o504,plástico
1.88,4.11,3.11,2.88,2.7,2o512,chão
1.88,4.11,3.11,2.88,2.7,2o501,terra
1.88,4.11,3.11,2.88,2.7,2h1,criança
1.88,4.11,3.11,2.88,2.7,2o501,terra
1.88,4.11,3.11,2.88,2.7,2o500,balde
1.88,4.11,3.11,2.88,2.7,2o511,arame
1.88,4.11,3.11,2.88,2.7,2h1,criança
1.88,4.11,3.11,2.88,2.7,2o513,cena
1.88,4.11,3.11,2.88,2.7,2o509,mata
2.88,4.44,3.78,1.63,4.1,2h1,menino
2.88,4.44,3.78,1.63,4.1,2o501,terra
2.88,4.44,3.78,1.63,4.1,2o500,recipiente
2.88,4.44,3.78,1.63,4.1,2o511,metal
2.88,4.44,3.78,1.63,4.1,2o500,balde
2.88,4.44,3.78,1.63,4.1,2o500,plástico
2.88,4.44,3.78,1.63,4.1,2o504,plástico
2.88,4.44,3.78,1.63,4.1,2o503,barraco
2.88,4.44,3.78,1.63,4.1,2o504,lona
2.88,4.44,3.78,1.63,4.1,2o509,vegetação
3.63,3.56,3.56,3.63,5.0,2o513,imagem
3.63,3.56,3.56,3.63,5.0,2h1,garoto
3.63,3.56,3.56,3.63,5.0,2o501,terra
3.63,3.56,3.56,3.63,5.0,2o500,balde
3.63,3.56,3.56,3.63,5.0,2o500,balde
3.63,3.56,3.56,3.63,5.0,2o513,cenário
3.63,3.56,3.56,3.63,5.0,2o503,barraco
3.63,3.56,3.56,3.63,5.0,2o503,construção
3.25,4.78,3.33,3.5,2.4,2h1,bebê
3.25,4.78,3.33,3.5,2.4,2o501,terra
3.25,4.78,3.33,3.5,2.4,2o500,balde
3.25,4.78,3.33,3.5,2.4,2o532,lugar
3.25,4.78,3.33,3.5,2.4,2o501,barro
3.25,4.78,3.33,3.5,2.4,2o503,casa
3.25,4.78,3.33,3.5,2.4,2o504,lona
3.25,4.78,3.33,3.5,2.4,2o506,madeira
3.25,4.78,3.33,3.5,2.4,2h1,bebê
3.25,4.78,3.33,3.5,2.4,2o513,foto
3.25,4.78,3.33,3.5,2.4,2o513,imagem
3.88,3.89,3.33,2.5,4.5,2o513,imagem
3.88,3.89,3.33,2.5,4.5,2h1,criança
3.88,3.89,3.33,2.5,4.5,2o501,terra
3.88,3.89,3.33,2.5,4.5,2o501,terra
3.88,3.89,3.33,2.5,4.5,2o500,balde
3.88,3.89,3.33,2.5,4.5,2h1,criança
3.88,3.89,3.33,2.5,4.5,2o512,terreno
3.88,3.89,3.33,2.5,4.5,2o501,terra
3.88,3.89,3.33,2.5,4.5,2o503,barraco
3.88,3.89,3.33,2.5,4.5,2o500,plástico
3.88,3.89,3.33,2.5,4.5,2o504,plástico
1.88,3.0,2.78,3.5,3.4,2o513,imagem
1.88,3.0,2.78,3.5,3.4,2h1,criança
1.88,3.0,2.78,3.5,3.4,2o500,balde
1.88,3.0,2.78,3.5,3.4,2o511,arame
1.88,3.0,2.78,3.5,3.4,2o501,terra
1.88,3.0,2.78,3.5,3.4,2h1,criança
1.88,3.0,2.78,3.5,3.4,2o532,local
1.88,3.0,2.78,3.5,3.4,2o501,terra
1.88,3.0,2.78,3.5,3.4,2o503,casa
1.88,3.0,2.78,3.5,3.4,2o503,cabana
1.88,3.0,2.78,3.5,3.4,2o504,lona
1.88,3.0,2.78,3.5,3.4,2o500,plástico
1.88,3.0,2.78,3.5,3.4,2o504,plástico
1.88,3.0,2.78,3.5,3.4,2o505,telhado
1.88,3.0,2.78,3.5,3.4,2o503,casa
1.88,3.0,2.78,3.5,3.4,2o503,casa
1.88,3.0,2.78,3.5,3.4,2o509,vegetação
2.0,3.56,3.0,2.75,3.4,2h1,menino
2.0,3.56,3.0,2.75,3.4,2o500,balde
2.0,3.56,3.0,2.75,3.4,2o501,terra
2.0,3.56,3.0,2.75,3.4,2o501,terra
2.0,3.56,3.0,2.75,3.4,2o500,balde
2.0,3.56,3.0,2.75,3.4,2o512,chão
2.0,3.56,3.0,2.75,3.4,2o501,terra
2.0,3.56,3.0,2.75,3.4,2o502,muro
2.0,3.56,3.0,2.75,3.4,2o503,casa
2.0,3.56,3.0,2.75,3.4,2o504,lona
2.0,3.56,3.0,2.75,3.4,2o504,lona
2.0,3.56,3.0,2.75,3.4,2o506,madeira
2.38,3.22,3.56,3.63,2.7,2h1,criança
2.38,3.22,3.56,3.63,2.7,2o501,terra
2.38,3.22,3.56,3.63,2.7,2o500,balde
2.38,3.22,3.56,3.63,2.7,2o503,barraca
2.38,3.22,3.56,3.63,2.7,2o506,madeira
2.38,3.22,3.56,3.63,2.7,2o508,lixo
2.38,3.22,3.56,3.63,2.7,2o500,plástico
2.38,3.22,3.56,3.63,2.7,2o504,plástico
2.38,3.22,3.56,3.63,2.7,2o502,muro
3.25,4.11,3.56,2.5,4.5,2o512,terreno
3.25,4.11,3.56,2.5,4.5,2o509,vegetação
3.25,4.11,3.56,2.5,4.5,2h1,criança
3.25,4.11,3.56,2.5,4.5,2o501,terra
3.25,4.11,3.56,2.5,4.5,2o500,balde
3.25,4.11,3.56,2.5,4.5,2o500,balde
4.0,4.11,3.44,3.38,3.4,2o503,casa
4.0,4.11,3.44,3.38,3.4,2o504,lona
4.0,4.11,3.44,3.38,3.4,2o506,bambu
4.0,4.11,3.44,3.38,3.4,2o504,lona
4.0,4.11,3.44,3.38,3.4,2o506,bambu
4.0,4.11,3.44,3.38,3.4,2o503,casa
4.0,4.11,3.44,3.38,3.4,2o503,casa
4.0,4.11,3.44,3.38,3.4,2o509,vegetação
4.0,4.11,3.44,3.38,3.4,2o532,local
4.0,4.11,3.44,3.38,3.4,2o503,casa
4.0,4.11,3.44,3.38,3.4,2h1,criança
4.0,4.11,3.44,3.38,3.4,2o500,pote
4.0,4.11,3.44,3.38,3.4,2o501,terra
4.0,4.11,3.44,3.38,3.4,2o500,balde
3.88,3.44,2.78,2.5,3.3,2o513,foto
3.88,3.44,2.78,2.5,3.3,2h1,criança
3.88,3.44,2.78,2.5,3.3,2o511,ferro
3.88,3.44,2.78,2.5,3.3,2o501,barro
3.88,3.44,2.78,2.5,3.3,2o501,barro
3.88,3.44,2.78,2.5,3.3,2o500,balde
3.88,3.44,2.78,2.5,3.3,2o503,cabana
3.88,3.44,2.78,2.5,3.3,2o500,plástico
3.88,3.44,2.78,2.5,3.3,2o504,plástico
2.63,3.89,2.89,3.38,3.6,2h1,criança
2.63,3.89,2.89,3.38,3.6,2o513,imagem
2.63,3.89,2.89,3.38,3.6,2o501,terra
2.63,3.89,2.89,3.38,3.6,2o500,balde
2.63,3.89,2.89,3.38,3.6,2h1,criança
2.63,3.89,2.89,3.38,3.6,2o501,terra
2.63,3.89,2.89,3.38,3.6,2o503,casa
2.63,3.89,2.89,3.38,3.6,2o513,imagem
3.75,3.44,2.89,2.13,4.3,2h1,garoto
3.75,3.44,2.89,2.13,4.3,2o501,terra
3.75,3.44,2.89,2.13,4.3,2o500,balde
3.75,3.44,2.89,2.13,4.3,2h1,menino
3.75,3.44,2.89,2.13,4.3,2o500,balde
3.75,3.44,2.89,2.13,4.3,2o511,arame
3.75,3.44,2.89,2.13,4.3,2o504,lona
3.75,3.44,2.89,2.13,4.3,2o509,mata
3.75,3.44,2.89,2.13,4.3,2o512,chão
3.75,3.44,2.89,2.13,4.3,2o501,terra
3.75,3.44,2.89,2.13,4.3,2h1,menino
3.75,3.44,2.89,2.13,4.3,2o500,balde
3.75,3.44,2.89,2.13,4.3,2o500,plástico
3.75,3.44,2.89,2.13,4.3,2o504,plástico
3.75,3.56,2.33,3.88,4.1,2o513,cena
3.75,3.56,2.33,3.88,4.1,2h1,criança
3.75,3.56,2.33,3.88,4.1,2o501,terra
3.75,3.56,2.33,3.88,4.1,2o511,ferro
3.75,3.56,2.33,3.88,4.1,2o500,balde
3.75,3.56,2.33,3.88,4.1,2o500,plástico
3.75,3.56,2.33,3.88,4.1,2o504,plástico
3.75,3.56,2.33,3.88,4.1,2o512,chão
3.75,3.56,2.33,3.88,4.1,2o501,terra
3.75,3.56,2.33,3.88,4.1,2o503,barraco
2.63,4.0,4.11,2.5,4.7,2o503,cabana
2.63,4.0,4.11,2.5,4.7,2o504,lona
2.63,4.0,4.11,2.5,4.7,2o512,terreno
2.63,4.0,4.11,2.5,4.7,2o501,terra
2.63,4.0,4.11,2.5,4.7,2h1,menino
2.63,4.0,4.11,2.5,4.7,2o501,terra
2.63,4.0,4.11,2.5,4.7,2o500,balde
2.63,4.0,4.11,2.5,4.7,2o513,cena
2.63,4.0,4.11,2.5,4.7,2o532,área
2.63,4.0,4.11,2.5,4.7,2o502,muro
2.5,4.56,3.0,2.38,2.8,2h1,criança
2.5,4.56,3.0,2.38,2.8,2o501,terra
2.5,4.56,3.0,2.38,2.8,2o500,balde
2.5,4.56,3.0,2.38,2.8,2h1,criança
2.5,4.56,3.0,2.38,2.8,2o503,barraco
2.5,4.56,3.0,2.38,2.8,2o506,madeira
2.5,4.56,3.0,2.38,2.8,2o504,lona
2.5,4.56,3.0,2.38,2.8,2h1,criança
3.13,3.56,3.89,3.75,3.5,2o513,imagem
3.13,3.56,3.89,3.75,3.5,2h1,criança
3.13,3.56,3.89,3.75,3.5,2o501,terra
3.13,3.56,3.89,3.75,3.5,2o500,balde
3.13,3.56,3.89,3.75,3.5,2o503,cabana
3.13,3.56,3.89,3.75,3.5,2o504,lona
3.13,3.56,3.89,3.75,3.5,2o503,cabana
3.5,4.56,2.67,1.88,3.7,2o501,areia
3.5,4.56,2.67,1.88,3.7,2o532,local
3.5,4.56,2.67,1.88,3.7,2o500,balde
3.5,4.56,2.67,1.88,3.7,2h1,menino
3.5,4.56,2.67,1.88,3.7,2o503,barraca
3.5,4.56,2.67,1.88,3.7,2o504,lona
3.5,4.56,2.67,1.88,3.7,2o505,telhado
3.5,4.56,2.67,1.88,3.7,2o532,ambiente
2.38,3.11,2.67,2.5,3.8,2h1,criança
2.38,3.11,2.67,2.5,3.8,2o501,terra
2.38,3.11,2.67,2.5,3.8,2o503,barraco
2.38,3.11,2.67,2.5,3.8,2o500,balde
2.38,3.11,2.67,2.5,3.8,2o503,barraco
2.38,3.11,2.67,2.5,3.8,2o506,madeira
2.38,3.11,2.67,2.5,3.8,2o505,telha
4.88,3.89,4.33,3.25,4.4,2h1,criança
4.88,3.89,4.33,3.25,4.4,2o501,terra
4.88,3.89,4.33,3.25,4.4,2o501,terra
4.88,3.89,4.33,3.25,4.4,2o501,terra
4.88,3.89,4.33,3.25,4.4,2o500,balde
4.88,3.89,4.33,3.25,4.4,2o503,barraco
4.88,3.89,4.33,3.25,4.4,2o504,lona
4.88,3.89,4.33,3.25,4.4,2o504,lona
4.88,3.89,4.33,3.25,4.4,2h1,criança
4.88,3.89,4.33,3.25,4.4,2o501,terra
3.5,2.67,4.0,1.88,4.0,2h1,criança
3.5,2.67,4.0,1.88,4.0,2o501,areia
3.5,2.67,4.0,1.88,4.0,2o500,balde
3.5,2.67,4.0,1.88,4.0,2o511,metal
3.5,2.67,4.0,1.88,4.0,2o503,barraca
3.5,2.67,4.0,1.88,4.0,2o504,lona
3.5,2.67,4.0,1.88,4.0,2h1,criança
3.5,2.67,4.0,1.88,4.0,2o509,mata
4.88,3.78,2.44,3.63,4.4,2h1,menino
4.88,3.78,2.44,3.63,4.4,2o503,barraca
4.88,3.78,2.44,3.63,4.4,2o504,saco
4.88,3.78,2.44,3.63,4.4,2o500,plástico
4.88,3.78,2.44,3.63,4.4,2o504,plástico
4.88,3.78,2.44,3.63,4.4,2h1,menino
4.88,3.78,2.44,3.63,4.4,2o516,roupa
4.88,3.78,2.44,3.63,4.4,2o501,terra
4.88,3.78,2.44,3.63,4.4,2o500,balde
4.88,3.78,2.44,3.63,4.4,2o500,balde
4.88,3.78,2.44,3.63,4.4,2h1,menino
4.88,3.78,2.44,3.63,4.4,2o501,terra
4.88,3.78,2.44,3.63,4.4,2o532,lugar
4.88,3.78,2.44,3.63,4.4,2h1,menino
3.63,3.78,3.67,3.0,4.5,2o513,imagem
3.63,3.78,3.67,3.0,4.5,2h1,menino
3.63,3.78,3.67,3.0,4.5,2o501,terra
3.63,3.78,3.67,3.0,4.5,2o513,imagem
3.63,3.78,3.67,3.0,4.5,2h1,criança
3.63,3.78,3.67,3.0,4.5,2o500,vasilha
3.63,3.78,3.67,3.0,4.5,2o511,metal
3.63,3.78,3.67,3.0,4.5,2o500,balde
3.63,3.78,3.67,3.0,4.5,2o500,plástico
3.63,3.78,3.67,3.0,4.5,2o504,plástico
3.63,3.78,3.67,3.0,4.5,2o501,terra
3.63,3.78,3.67,3.0,4.5,2h1,criança
3.63,3.78,3.67,3.0,4.5,2o503,barraco
3.63,3.78,3.67,3.0,4.5,2o504,lona
3.63,3.78,3.67,3.0,4.5,2o503,casa
3.63,3.78,3.67,3.0,4.5,2h1,criança
3.63,3.78,3.67,3.0,4.5,2o503,barraco
4.13,3.67,4.0,3.13,3.9,2h1,criança
2.38,3.33,3.67,3.88,3.3,2h1,criança
2.38,3.33,3.67,3.88,3.3,2o501,terra
2.38,3.33,3.67,3.88,3.3,2o500,balde
2.38,3.33,3.67,3.88,3.3,2o503,casa
2.38,3.33,3.67,3.88,3.3,2o504,lona
2.38,3.33,3.67,3.88,3.3,2o532,local
2.5,3.33,2.89,2.75,4.6,2o513,cena
2.5,3.33,2.89,2.75,4.6,2h1,criança
2.5,3.33,2.89,2.75,4.6,2o501,areia
2.5,3.33,2.89,2.75,4.6,2o500,balde
2.5,3.33,2.89,2.75,4.6,2h1,criança
2.5,3.33,2.89,2.75,4.6,2o501,terra
2.5,3.33,2.89,2.75,4.6,2o504,lona
2.5,3.33,2.89,2.75,4.6,2o513,cenário
2.25,3.78,2.22,1.5,3.2,2h1,bebê
2.25,3.78,2.22,1.5,3.2,2o500,vasilha
2.25,3.78,2.22,1.5,3.2,2o501,areia
2.25,3.78,2.22,1.5,3.2,2o500,balde
2.25,3.78,2.22,1.5,3.2,2o503,abrigo
2.25,3.78,2.22,1.5,3.2,2o500,plástico
2.25,3.78,2.22,1.5,3.2,2o504,plástico
3.0,4.67,4.0,2.5,3.3,2o513,imagem
3.0,4.67,4.0,2.5,3.3,2o513,imagem
3.0,4.67,4.0,2.5,3.3,2o503,casa
3.0,4.67,4.0,2.5,3.3,2o532,lugar
3.0,4.67,4.0,2.5,3.3,2o532,ambiente
3.13,3.89,3.44,3.75,3.6,2h1,criança
3.13,3.89,3.44,3.75,3.6,2o503,casa
3.13,3.89,3.44,3.75,3.6,2o512,chão
3.13,3.89,3.44,3.75,3.6,2o501,terra
3.13,3.89,3.44,3.75,3.6,2o504,lona
3.13,3.89,3.44,3.75,3.6,2o503,casa
3.13,3.89,3.44,3.75,3.6,2h1,criança
3.13,3.89,3.44,3.75,3.6,2o501,terra
3.13,3.89,3.44,3.75,3.6,2o500,balde
2.88,4.56,2.78,2.38,3.3,2h1,bebê
2.88,4.56,2.78,2.38,3.3,2h1,criança
2.88,4.56,2.78,2.38,3.3,2o501,terra
2.88,4.56,2.78,2.38,3.3,2o500,balde
2.88,4.56,2.78,2.38,3.3,2o503,construção
2.88,4.56,2.78,2.38,3.3,2o511,metal
2.88,4.56,2.78,2.38,3.3,2o509,vegetação
3.13,3.67,2.11,4.0,3.7,2h1,menino
3.13,3.67,2.11,4.0,3.7,2o501,terra
3.13,3.67,2.11,4.0,3.7,2o500,balde
3.13,3.67,2.11,4.0,3.7,2h1,menino
3.13,3.67,2.11,4.0,3.7,2o512,chão
3.13,3.67,2.11,4.0,3.7,2o501,terra
3.13,3.67,2.11,4.0,3.7,2o501,barro
3.13,3.67,2.11,4.0,3.7,2h1,menino
3.13,3.67,2.11,4.0,3.7,2o503,barraco
3.13,3.67,2.11,4.0,3.7,2o504,lona
3.13,3.67,2.11,4.0,3.7,2o500,plástico
3.13,3.67,2.11,4.0,3.7,2o504,plástico
3.13,3.67,2.11,4.0,3.7,2o509,vegetação
1.88,4.22,2.89,2.25,3.5,2h1,criança
1.88,4.22,2.89,2.25,3.5,2o500,balde
1.88,4.22,2.89,2.25,3.5,2o501,terra
1.88,4.22,2.89,2.25,3.5,2o503,barraco
1.88,4.22,2.89,2.25,3.5,2o504,lona
4.25,4.0,2.78,2.38,3.7,2h1,criança
4.25,4.0,2.78,2.38,3.7,2o501,terra
4.25,4.0,2.78,2.38,3.7,2o503,barraca
4.25,4.0,2.78,2.38,3.7,2o504,lona
4.25,4.0,2.78,2.38,3.7,2o500,plástico
4.25,4.0,2.78,2.38,3.7,2o504,plástico
4.25,4.0,2.78,2.38,3.7,2o505,telha
4.25,4.0,2.78,2.38,3.7,2o506,madeira
4.25,4.0,2.78,2.38,3.7,2h1,criança
4.25,4.0,2.78,2.38,3.7,2o500,pote
4.25,4.0,2.78,2.38,3.7,2o501,terra
4.25,4.0,2.78,2.38,3.7,2o500,balde
3.63,4.44,2.22,2.88,4.1,2h1,criança
3.63,4.44,2.22,2.88,4.1,2o501,terra
3.63,4.44,2.22,2.88,4.1,2o500,recipiente
3.63,4.44,2.22,2.88,4.1,2o511,metal
3.63,4.44,2.22,2.88,4.1,2o500,balde
3.63,4.44,2.22,2.88,4.1,2o500,plástico
3.63,4.44,2.22,2.88,4.1,2o504,plástico
3.63,4.44,2.22,2.88,4.1,2o512,terreno
3.63,4.44,2.22,2.88,4.1,2o501,terra
3.63,4.44,2.22,2.88,4.1,2o503,moradia
3.63,4.44,2.22,2.88,4.1,2o504,lona
3.63,4.44,2.22,2.88,4.1,2o508,lixo
3.63,4.44,2.22,2.88,4.1,2o506,madeira
3.63,4.44,2.22,2.88,4.1,2o503,moradia
3.63,4.44,2.22,2.88,4.1,2o503,moradia
2.88,3.78,3.78,4.0,3.3,2h1,menino
2.88,3.78,3.78,4.0,3.3,2o501,terra
2.88,3.78,3.78,4.0,3.3,2o500,balde
2.88,3.78,3.78,4.0,3.3,2o511,arame
2.88,3.78,3.78,4.0,3.3,2o532,local
2.88,3.78,3.78,4.0,3.3,2o504,lona
2.88,3.78,3.78,4.0,3.3,2o505,telhado
2.88,3.78,3.78,4.0,3.3,2o505,telha
1.88,4.56,4.22,3.75,2.1,2o513,cenário
1.88,4.56,4.22,3.75,2.1,2o503,abrigo
1.88,4.56,4.22,3.75,2.1,2h1,criança
1.88,4.56,4.22,3.75,2.1,2o501,areia
3.0,3.44,4.89,4.0,2.9,2h1,criança
3.0,3.44,4.89,4.0,2.9,2o501,terra
3.0,3.44,4.89,4.0,2.9,2o500,balde
3.0,3.44,4.89,4.0,2.9,2o513,cenário
3.0,3.44,4.89,4.0,2.9,2o503,casa
